<?xml version="1.0" encoding="UTF-8"?>
<svg xmlns="http://www.w3.org/2000/svg" viewBox="0 0 180 100">
  <defs>
    <style>
      .cls-1 {
        fill: none;
      }
    </style>
  </defs>
  <g id="Layer_1" data-name="Layer 1">
    <rect class="cls-1" width="180" height="100"/>
  </g>
  <g id="Layer_2" data-name="Layer 2">
    <g>
      <path d="m69.54,48.8c-.09-.09-.13-.2-.13-.35v-14.25c0-.14.04-.26.13-.35.09-.09.2-.13.35-.13h.41c.14,0,.26.04.35.13.09.09.13.2.13.35v13.43h7.5c.16,0,.28.04.37.13.09.09.13.21.13.37v.33c0,.14-.05.26-.14.35-.09.09-.21.13-.36.13h-8.39c-.15,0-.26-.04-.35-.13Z"/>
      <path d="m80.9,48.8c-.09-.09-.13-.2-.13-.35v-10.34c0-.14.04-.26.13-.35.09-.09.2-.13.35-.13h.37c.14,0,.26.04.35.13.09.09.13.2.13.35v10.34c0,.14-.04.26-.13.35-.09.09-.2.13-.35.13h-.37c-.15,0-.26-.04-.35-.13Z"/>
      <path d="m86.48,48.8c-.09-.09-.13-.2-.13-.35v-9.56h-1.93c-.14,0-.26-.04-.35-.13-.09-.09-.13-.2-.13-.35v-.3c0-.14.04-.26.13-.35.09-.09.2-.13.35-.13h1.93v-1.24c0-1.1.24-1.97.72-2.6.48-.63,1.33-.95,2.56-.95h1.13c.14,0,.26.04.35.13s.13.2.13.35v.3c0,.14-.04.26-.13.35-.09.09-.2.13-.35.13h-1.13c-.74,0-1.25.19-1.53.58-.28.38-.42.99-.42,1.81v1.13h2.87c.14,0,.26.04.35.13.09.09.13.2.13.35v.3c0,.14-.04.26-.13.35-.09.09-.2.13-.35.13h-2.87v9.56c0,.14-.04.26-.13.35-.09.09-.2.13-.35.13h-.37c-.15,0-.26-.04-.35-.13Z"/>
      <path d="m93.36,47.79c-.84-.91-1.32-2.12-1.43-3.64l-.02-.87.02-.87c.12-1.51.59-2.72,1.42-3.63.83-.91,1.94-1.37,3.34-1.37,1.51,0,2.68.5,3.53,1.5.85,1,1.27,2.37,1.27,4.11v.33c0,.14-.05.26-.14.35-.09.09-.21.13-.36.13h-7.74v.22c.03.68.18,1.31.47,1.9.28.59.68,1.06,1.18,1.41.51.36,1.1.53,1.78.53.8,0,1.45-.16,1.94-.47.5-.31.86-.63,1.08-.95.13-.17.23-.28.29-.33.07-.04.18-.07.36-.07h.35c.13,0,.24.04.33.11.09.07.13.17.13.28,0,.3-.19.67-.58,1.1-.38.43-.92.8-1.6,1.11-.68.31-1.45.47-2.3.47-1.38,0-2.48-.45-3.32-1.36Zm6.8-5.18v-.09c0-1.12-.32-2.04-.95-2.76-.63-.72-1.47-1.09-2.53-1.09s-1.89.36-2.51,1.09c-.62.72-.92,1.64-.92,2.76v.09h6.91Z"/>
      <polygon points="82.09 36.37 74.95 29.23 82.09 29.23 82.09 36.37"/>
      <g>
        <path d="m72.38,57.1h1.69v-.93h1.14c.51,0,.93-.42.93-.93v-.63h-2.06v-.96h-.76c-.51,0-.93.42-.93.93v.04h-2.05c-.51,0-.93.42-.93.93v.63h2.97v.93Z"/>
        <path d="m81.05,53.65h-.76c-.51,0-.93.42-.93.93v.04h-1.14c-.51,0-.93.42-.93.93v.63h2.06v.93h1.69v-.93h2.05c.51,0,.93-.42.93-.93v-.63h-2.97v-.97Z"/>
        <path d="m77.33,63.6h4.21c.51,0,.93-.42.93-.93v-4.23c0-.51-.42-.93-.93-.93h-9.93c-.51,0-.93.42-.93.93v4.23c0,.51.42.93.93.93h4.16v.93h-5.44c-.51,0-.93.42-.93.93v5.22s.67,0,.67,0c.51,0,.93-.42.93-.93v-3.75h4.77v1.69h-1.69c-.86,0-1.56.71-1.56,1.57h6.68s0,1.47,0,1.47h3.87c.51,0,.92-.41.92-.92v-5.27h-6.66v-.93Zm0-4.68h3.54v1h-3.54v-1Zm0,2.23h3.54v1.04h-3.54v-1.04Zm-1.56,1.04h-3.51v-1.04h3.51v1.04Zm0-2.26h-3.51v-1h3.51v1Zm6.62,6.07v3.35h-1.51v-2.11s-1.24,0-1.24,0c-.24,0-.44.2-.44.44h-1.88s0-1.68,0-1.68h5.07Z"/>
        <path d="m108.41,54.64l-.03-.03-.35-.28c-.45-.36-1.12-.22-1.39.29l-3.47,6.44.39.32c.45.36,1.11.23,1.39-.27l.71-1.27v10.81s.68,0,.68,0c.52,0,.94-.41.94-.93v-12.64c0-.15.03-.29.1-.42l1.03-2.03Z"/>
        <path d="m116.98,63.86h2.06c.5,0,.9-.4.92-.89l.02-.79h-5l-.02-1.41h.35s0,0,0,0h1.42s.05,0,.08,0h.48s.52,0,.52,0c.03,0,.06,0,.09-.02.4-.09.66-.46.66-.87v-1.11s0-3.14,0-3.14c0-.51-.41-.92-.92-.92h-7.02c-.51,0-.92.41-.92.92v4.23c0,.51.41.92.92.92h2.6l.02,1.41h-4.03c-.51,0-.92.41-.92.92v.77h2.98l-3.4,4.25.52.42c.4.32.98.25,1.29-.15l3.54-4.52h.02v6.78h.79c.51.02.93-.39.93-.9v-5.91h.02s3.57,4.55,3.57,4.55c.33.42.95.47,1.34.11l.41-.38-3.34-4.25Zm-5.51-4.63v-2.95s5.35,0,5.35,0c0,.04,0,2.95,0,2.95h-5.35Z"/>
        <path d="m128.01,61.25v3.4c0,.39.32.71.71.71h2.85c.39,0,.71-.31.71-.71v-3.4c0-.39-.32-.71-.71-.71h-2.85c-.39,0-.71.32-.71.71m2.87,2.76h-1.45v-2.13h1.45v2.13Z"/>
        <path d="m136.83,60.54h-2.85c-.39,0-.71.32-.71.71v3.4c0,.39.32.71.71.71h2.85c.39,0,.71-.31.71-.71v-3.4c0-.39-.32-.71-.71-.71m-.69,3.47h-1.45v-2.13h1.45v2.13Z"/>
        <path d="m132.34,68.57h0s0-.01,0-.01l-1.38-.99,1.1-.95-.64-.44c-.35-.24-.81-.21-1.13.07l-4.45,3.93.64.44c.35.24.81.21,1.13-.07l2.16-1.91.76.55c.34.25.81.23,1.14-.04l.68-.58Z"/>
        <path d="m136.75,67.55l1.1-.96-.17-.13-.46-.31c-.35-.24-.81-.21-1.13.07l-4.46,3.94.64.43c.35.24.81.21,1.13-.07l2.16-1.91,1.48,1.08c.34.25.81.23,1.13-.04l.68-.58-2.11-1.52Z"/>
        <path d="m127.4,59.36c.35.27.84.26,1.17-.02l.71-.61c0,.21.17.38.38.38h6.12c.21,0,.38-.17.38-.38v-.02l.78.65c.33.28.82.29,1.16.02l.55-.43-4.74-4.26c-.17-.15-.39-.24-.62-.24h-1.11c-.23,0-.45.08-.62.24l-4.7,4.25.54.43Zm5.33-3.4l2.09,1.76h-4.18l2.09-1.76Z"/>
        <path d="m123.55,66.78v.64l2.95.02c.66,0,1.11-.67.86-1.28-.56-1.34-1.49-3.57-1.9-4.5-.09-.22-.1-.46-.02-.68.67-1.81,1.68-4.68,1.68-4.69v-1.62s-4.6-.04-4.6-.04c-.51,0-.93.41-.93.92v15.12s.68,0,.68,0c.51,0,.93-.41.93-.92v-13.46h2.21c-.33,1.21-1.24,3.75-1.58,4.68-.08.23-.07.48.03.7l1.91,4.19h-1.29c-.51,0-.92.42-.92.92"/>
        <path d="m90.41,55.39l-1.94-1.52c-.38-.3-.95-.18-1.18.25l-.31.58,1.91,1.52c.38.3.95.19,1.18-.24l.33-.58Z"/>
        <path d="m92.58,67.97c.49,0,.88-.41.88-.9v-2.07h2.49v2.96h0s0,0,0,0h.68c.49,0,.89-.41.89-.9v-2.06h2.57v1.36h-.82c-.5,0-.9.39-.9.89v.68h2.41c.5.02.9-.39.9-.88v-7.88c0-.5-.4-.9-.9-.9h-2.49l2.31-1.82c.22-.17.34-.43.34-.7v-1.08h-8.19c-.5,0-.9.4-.9.9v.61h3.03l-.85.83,1.6,1.27h-2.88c-.5,0-.9.39-.9.89v8.81h.72Zm7.52-4.35h-2.57v-1.26h2.57v1.26Zm0-2.66h-2.57v-1.29h2.57v1.29Zm-4.6-4.74l-.05-.04h3.07l-1.53,1.21-1.49-1.17Zm-2.03,3.45h2.49v1.29h-2.49v-1.29Zm0,2.69h2.49v1.26h-2.49v-1.26Z"/>
        <path d="m102.59,69.13h-10.05c-.28,0-.54-.1-.74-.27l-2.25-1.96,1.29-2.33c.07-.12.1-.26.1-.41v-1.14h-2.12l1.82-3.27v-1.47s-3.35,0-3.37,0c-.01,0-.03,0-.04,0-.45.04-.8.4-.83.84,0,0,0,.63,0,.63h2.43l-1.73,3.08c-.07.12-.11.26-.11.4v1.19h2.16l-3.01,5.3,1.2,1.04,1.47-2.54,2.34,2.03c.2.17.46.27.74.27h9.8c.51,0,.93-.4.93-.9v-.5Z"/>
      </g>
      <polygon points="56.75 33.72 56.75 48.93 59.77 48.93 59.77 43.04 66.83 43.04 66.83 40.44 59.77 40.44 59.77 36.35 67.27 36.35 67.27 33.72 56.75 33.72"/>
      <path d="m52.12,33.71l-3.91,6.71-3.89-6.71h-3.17l5.54,9.8v5.42h3.06s0-.52,0-.53v-4.89l5.52-9.8h-3.15Z"/>
    </g>
  </g>
</svg>