<svg width="648" height="651" viewBox="0 0 648 651" fill="none" xmlns="http://www.w3.org/2000/svg">
<path d="M468.708 173L472.528 158.72H470.628L467.728 170.6H467.688L464.528 158.72H462.468L459.268 170.6H459.228L456.428 158.72H454.488L458.148 173H460.128L463.428 161H463.468L466.728 173H468.708ZM474.044 158.72V173H475.744V167.16C475.744 166.693 475.804 166.267 475.924 165.88C476.057 165.48 476.25 165.133 476.504 164.84C476.757 164.547 477.07 164.32 477.444 164.16C477.83 164 478.284 163.92 478.804 163.92C479.457 163.92 479.97 164.107 480.344 164.48C480.717 164.853 480.904 165.36 480.904 166V173H482.604V166.2C482.604 165.64 482.544 165.133 482.424 164.68C482.317 164.213 482.124 163.813 481.844 163.48C481.564 163.147 481.197 162.887 480.744 162.7C480.29 162.513 479.724 162.42 479.044 162.42C478.737 162.42 478.417 162.453 478.084 162.52C477.764 162.587 477.45 162.693 477.144 162.84C476.85 162.973 476.584 163.153 476.344 163.38C476.104 163.593 475.917 163.86 475.784 164.18H475.744V158.72H474.044ZM494.317 172.96C494.024 173.133 493.617 173.22 493.097 173.22C492.657 173.22 492.304 173.1 492.037 172.86C491.784 172.607 491.657 172.2 491.657 171.64C491.19 172.2 490.644 172.607 490.017 172.86C489.404 173.1 488.737 173.22 488.017 173.22C487.55 173.22 487.104 173.167 486.677 173.06C486.264 172.953 485.904 172.787 485.597 172.56C485.29 172.333 485.044 172.04 484.857 171.68C484.684 171.307 484.597 170.86 484.597 170.34C484.597 169.753 484.697 169.273 484.897 168.9C485.097 168.527 485.357 168.227 485.677 168C486.01 167.76 486.384 167.58 486.797 167.46C487.224 167.34 487.657 167.24 488.097 167.16C488.564 167.067 489.004 167 489.417 166.96C489.844 166.907 490.217 166.84 490.537 166.76C490.857 166.667 491.11 166.54 491.297 166.38C491.484 166.207 491.577 165.96 491.577 165.64C491.577 165.267 491.504 164.967 491.357 164.74C491.224 164.513 491.044 164.34 490.817 164.22C490.604 164.1 490.357 164.02 490.077 163.98C489.81 163.94 489.544 163.92 489.277 163.92C488.557 163.92 487.957 164.06 487.477 164.34C486.997 164.607 486.737 165.12 486.697 165.88H484.997C485.024 165.24 485.157 164.7 485.397 164.26C485.637 163.82 485.957 163.467 486.357 163.2C486.757 162.92 487.21 162.72 487.717 162.6C488.237 162.48 488.79 162.42 489.377 162.42C489.844 162.42 490.304 162.453 490.757 162.52C491.224 162.587 491.644 162.727 492.017 162.94C492.39 163.14 492.69 163.427 492.917 163.8C493.144 164.173 493.257 164.66 493.257 165.26V170.58C493.257 170.98 493.277 171.273 493.317 171.46C493.37 171.647 493.53 171.74 493.797 171.74C493.944 171.74 494.117 171.707 494.317 171.64V172.96ZM491.557 167.66C491.344 167.82 491.064 167.94 490.717 168.02C490.37 168.087 490.004 168.147 489.617 168.2C489.244 168.24 488.864 168.293 488.477 168.36C488.09 168.413 487.744 168.507 487.437 168.64C487.13 168.773 486.877 168.967 486.677 169.22C486.49 169.46 486.397 169.793 486.397 170.22C486.397 170.5 486.45 170.74 486.557 170.94C486.677 171.127 486.824 171.28 486.997 171.4C487.184 171.52 487.397 171.607 487.637 171.66C487.877 171.713 488.13 171.74 488.397 171.74C488.957 171.74 489.437 171.667 489.837 171.52C490.237 171.36 490.564 171.167 490.817 170.94C491.07 170.7 491.257 170.447 491.377 170.18C491.497 169.9 491.557 169.64 491.557 169.4V167.66ZM498.259 162.66V159.56H496.559V162.66H494.799V164.16H496.559V170.74C496.559 171.22 496.606 171.607 496.699 171.9C496.792 172.193 496.932 172.42 497.119 172.58C497.319 172.74 497.572 172.853 497.879 172.92C498.199 172.973 498.579 173 499.019 173H500.319V171.5H499.539C499.272 171.5 499.052 171.493 498.879 171.48C498.719 171.453 498.592 171.407 498.499 171.34C498.406 171.273 498.339 171.18 498.299 171.06C498.272 170.94 498.259 170.78 498.259 170.58V164.16H500.319V162.66H498.259ZM511.834 174.38C511.634 174.887 511.434 175.313 511.234 175.66C511.047 176.007 510.834 176.287 510.594 176.5C510.367 176.727 510.107 176.887 509.814 176.98C509.534 177.087 509.207 177.14 508.834 177.14C508.634 177.14 508.434 177.127 508.234 177.1C508.034 177.073 507.841 177.027 507.654 176.96V175.4C507.801 175.467 507.967 175.52 508.154 175.56C508.354 175.613 508.521 175.64 508.654 175.64C509.001 175.64 509.287 175.553 509.514 175.38C509.754 175.22 509.934 174.987 510.054 174.68L510.754 172.94L506.654 162.66H508.574L511.594 171.12H511.634L514.534 162.66H516.334L511.834 174.38ZM519.014 167.84C519.014 167.213 519.094 166.66 519.254 166.18C519.427 165.687 519.661 165.273 519.954 164.94C520.247 164.607 520.587 164.353 520.974 164.18C521.374 164.007 521.794 163.92 522.234 163.92C522.674 163.92 523.087 164.007 523.474 164.18C523.874 164.353 524.221 164.607 524.514 164.94C524.807 165.273 525.034 165.687 525.194 166.18C525.367 166.66 525.454 167.213 525.454 167.84C525.454 168.467 525.367 169.027 525.194 169.52C525.034 170 524.807 170.407 524.514 170.74C524.221 171.06 523.874 171.307 523.474 171.48C523.087 171.653 522.674 171.74 522.234 171.74C521.794 171.74 521.374 171.653 520.974 171.48C520.587 171.307 520.247 171.06 519.954 170.74C519.661 170.407 519.427 170 519.254 169.52C519.094 169.027 519.014 168.467 519.014 167.84ZM517.214 167.84C517.214 168.6 517.321 169.307 517.534 169.96C517.747 170.613 518.067 171.187 518.494 171.68C518.921 172.16 519.447 172.54 520.074 172.82C520.701 173.087 521.421 173.22 522.234 173.22C523.061 173.22 523.781 173.087 524.394 172.82C525.021 172.54 525.547 172.16 525.974 171.68C526.401 171.187 526.721 170.613 526.934 169.96C527.147 169.307 527.254 168.6 527.254 167.84C527.254 167.08 527.147 166.373 526.934 165.72C526.721 165.053 526.401 164.48 525.974 164C525.547 163.507 525.021 163.12 524.394 162.84C523.781 162.56 523.061 162.42 522.234 162.42C521.421 162.42 520.701 162.56 520.074 162.84C519.447 163.12 518.921 163.507 518.494 164C518.067 164.48 517.747 165.053 517.534 165.72C517.321 166.373 517.214 167.08 517.214 167.84ZM537.819 173V162.66H536.119V168.5C536.119 168.967 536.052 169.4 535.919 169.8C535.799 170.187 535.612 170.527 535.359 170.82C535.105 171.113 534.785 171.34 534.399 171.5C534.025 171.66 533.579 171.74 533.059 171.74C532.405 171.74 531.892 171.553 531.519 171.18C531.145 170.807 530.959 170.3 530.959 169.66V162.66H529.259V169.46C529.259 170.02 529.312 170.533 529.419 171C529.539 171.453 529.739 171.847 530.019 172.18C530.299 172.513 530.665 172.773 531.119 172.96C531.572 173.133 532.139 173.22 532.819 173.22C533.579 173.22 534.239 173.073 534.799 172.78C535.359 172.473 535.819 172 536.179 171.36H536.219V173H537.819ZM540.312 162.66V173H542.012V168.4C542.012 167.733 542.078 167.147 542.212 166.64C542.345 166.12 542.558 165.68 542.852 165.32C543.145 164.96 543.532 164.687 544.012 164.5C544.492 164.313 545.072 164.22 545.752 164.22V162.42C544.832 162.393 544.072 162.58 543.472 162.98C542.872 163.38 542.365 164 541.952 164.84H541.912V162.66H540.312ZM420.65 195.74H418.95C418.977 196.38 419.11 196.927 419.35 197.38C419.59 197.82 419.91 198.18 420.31 198.46C420.71 198.727 421.17 198.92 421.69 199.04C422.21 199.16 422.757 199.22 423.33 199.22C423.85 199.22 424.37 199.167 424.89 199.06C425.423 198.967 425.897 198.793 426.31 198.54C426.737 198.287 427.077 197.953 427.33 197.54C427.597 197.127 427.73 196.607 427.73 195.98C427.73 195.487 427.63 195.073 427.43 194.74C427.243 194.407 426.99 194.133 426.67 193.92C426.363 193.693 426.003 193.513 425.59 193.38C425.19 193.247 424.777 193.133 424.35 193.04C423.95 192.947 423.55 192.86 423.15 192.78C422.75 192.687 422.39 192.58 422.07 192.46C421.75 192.327 421.483 192.167 421.27 191.98C421.07 191.78 420.97 191.533 420.97 191.24C420.97 190.973 421.037 190.76 421.17 190.6C421.303 190.427 421.477 190.293 421.69 190.2C421.903 190.093 422.137 190.02 422.39 189.98C422.657 189.94 422.917 189.92 423.17 189.92C423.45 189.92 423.723 189.953 423.99 190.02C424.27 190.073 424.523 190.167 424.75 190.3C424.977 190.433 425.163 190.613 425.31 190.84C425.457 191.053 425.543 191.327 425.57 191.66H427.27C427.23 191.033 427.097 190.513 426.87 190.1C426.643 189.673 426.337 189.34 425.95 189.1C425.577 188.847 425.143 188.673 424.65 188.58C424.157 188.473 423.617 188.42 423.03 188.42C422.577 188.42 422.117 188.48 421.65 188.6C421.197 188.707 420.783 188.88 420.41 189.12C420.05 189.347 419.75 189.647 419.51 190.02C419.283 190.393 419.17 190.84 419.17 191.36C419.17 192.027 419.337 192.547 419.67 192.92C420.003 193.293 420.417 193.587 420.91 193.8C421.417 194 421.963 194.16 422.55 194.28C423.137 194.387 423.677 194.513 424.17 194.66C424.677 194.793 425.097 194.973 425.43 195.2C425.763 195.427 425.93 195.76 425.93 196.2C425.93 196.52 425.85 196.787 425.69 197C425.53 197.2 425.323 197.353 425.07 197.46C424.83 197.567 424.563 197.64 424.27 197.68C423.977 197.72 423.697 197.74 423.43 197.74C423.083 197.74 422.743 197.707 422.41 197.64C422.09 197.573 421.797 197.467 421.53 197.32C421.277 197.16 421.07 196.953 420.91 196.7C420.75 196.433 420.663 196.113 420.65 195.74ZM431.97 188.66V185.56H430.27V188.66H428.51V190.16H430.27V196.74C430.27 197.22 430.317 197.607 430.41 197.9C430.503 198.193 430.643 198.42 430.83 198.58C431.03 198.74 431.283 198.853 431.59 198.92C431.91 198.973 432.29 199 432.73 199H434.03V197.5H433.25C432.983 197.5 432.763 197.493 432.59 197.48C432.43 197.453 432.303 197.407 432.21 197.34C432.117 197.273 432.05 197.18 432.01 197.06C431.983 196.94 431.97 196.78 431.97 196.58V190.16H434.03V188.66H431.97ZM445.079 198.96C444.785 199.133 444.379 199.22 443.859 199.22C443.419 199.22 443.065 199.1 442.799 198.86C442.545 198.607 442.419 198.2 442.419 197.64C441.952 198.2 441.405 198.607 440.779 198.86C440.165 199.1 439.499 199.22 438.779 199.22C438.312 199.22 437.865 199.167 437.439 199.06C437.025 198.953 436.665 198.787 436.359 198.56C436.052 198.333 435.805 198.04 435.619 197.68C435.445 197.307 435.359 196.86 435.359 196.34C435.359 195.753 435.459 195.273 435.659 194.9C435.859 194.527 436.119 194.227 436.439 194C436.772 193.76 437.145 193.58 437.559 193.46C437.985 193.34 438.419 193.24 438.859 193.16C439.325 193.067 439.765 193 440.179 192.96C440.605 192.907 440.979 192.84 441.299 192.76C441.619 192.667 441.872 192.54 442.059 192.38C442.245 192.207 442.339 191.96 442.339 191.64C442.339 191.267 442.265 190.967 442.119 190.74C441.985 190.513 441.805 190.34 441.579 190.22C441.365 190.1 441.119 190.02 440.839 189.98C440.572 189.94 440.305 189.92 440.039 189.92C439.319 189.92 438.719 190.06 438.239 190.34C437.759 190.607 437.499 191.12 437.459 191.88H435.759C435.785 191.24 435.919 190.7 436.159 190.26C436.399 189.82 436.719 189.467 437.119 189.2C437.519 188.92 437.972 188.72 438.479 188.6C438.999 188.48 439.552 188.42 440.139 188.42C440.605 188.42 441.065 188.453 441.519 188.52C441.985 188.587 442.405 188.727 442.779 188.94C443.152 189.14 443.452 189.427 443.679 189.8C443.905 190.173 444.019 190.66 444.019 191.26V196.58C444.019 196.98 444.039 197.273 444.079 197.46C444.132 197.647 444.292 197.74 444.559 197.74C444.705 197.74 444.879 197.707 445.079 197.64V198.96ZM442.319 193.66C442.105 193.82 441.825 193.94 441.479 194.02C441.132 194.087 440.765 194.147 440.379 194.2C440.005 194.24 439.625 194.293 439.239 194.36C438.852 194.413 438.505 194.507 438.199 194.64C437.892 194.773 437.639 194.967 437.439 195.22C437.252 195.46 437.159 195.793 437.159 196.22C437.159 196.5 437.212 196.74 437.319 196.94C437.439 197.127 437.585 197.28 437.759 197.4C437.945 197.52 438.159 197.607 438.399 197.66C438.639 197.713 438.892 197.74 439.159 197.74C439.719 197.74 440.199 197.667 440.599 197.52C440.999 197.36 441.325 197.167 441.579 196.94C441.832 196.7 442.019 196.447 442.139 196.18C442.259 195.9 442.319 195.64 442.319 195.4V193.66ZM446.761 184.72V199H448.461V195.08L450.061 193.6L453.601 199H455.761L451.361 192.42L455.461 188.66H453.181L448.461 193.18V184.72H446.761ZM464.212 192.84H458.272C458.299 192.44 458.385 192.067 458.532 191.72C458.679 191.36 458.879 191.047 459.132 190.78C459.385 190.513 459.685 190.307 460.032 190.16C460.392 190 460.792 189.92 461.232 189.92C461.659 189.92 462.045 190 462.392 190.16C462.752 190.307 463.059 190.513 463.312 190.78C463.579 191.033 463.785 191.34 463.932 191.7C464.092 192.06 464.185 192.44 464.212 192.84ZM465.852 195.72H464.172C464.025 196.4 463.719 196.907 463.252 197.24C462.799 197.573 462.212 197.74 461.492 197.74C460.932 197.74 460.445 197.647 460.032 197.46C459.619 197.273 459.279 197.027 459.012 196.72C458.745 196.4 458.552 196.04 458.432 195.64C458.312 195.227 458.259 194.793 458.272 194.34H466.012C466.039 193.713 465.979 193.053 465.832 192.36C465.699 191.667 465.445 191.027 465.072 190.44C464.712 189.853 464.225 189.373 463.612 189C463.012 188.613 462.252 188.42 461.332 188.42C460.625 188.42 459.972 188.553 459.372 188.82C458.785 189.087 458.272 189.46 457.832 189.94C457.405 190.42 457.072 190.987 456.832 191.64C456.592 192.293 456.472 193.013 456.472 193.8C456.499 194.587 456.612 195.313 456.812 195.98C457.025 196.647 457.339 197.22 457.752 197.7C458.165 198.18 458.672 198.553 459.272 198.82C459.885 199.087 460.605 199.22 461.432 199.22C462.605 199.22 463.579 198.927 464.352 198.34C465.125 197.753 465.625 196.88 465.852 195.72ZM467.774 184.72V199H469.474V193.16C469.474 192.693 469.534 192.267 469.654 191.88C469.787 191.48 469.981 191.133 470.234 190.84C470.487 190.547 470.801 190.32 471.174 190.16C471.561 190 472.014 189.92 472.534 189.92C473.187 189.92 473.701 190.107 474.074 190.48C474.447 190.853 474.634 191.36 474.634 192V199H476.334V192.2C476.334 191.64 476.274 191.133 476.154 190.68C476.047 190.213 475.854 189.813 475.574 189.48C475.294 189.147 474.927 188.887 474.474 188.7C474.021 188.513 473.454 188.42 472.774 188.42C472.467 188.42 472.147 188.453 471.814 188.52C471.494 188.587 471.181 188.693 470.874 188.84C470.581 188.973 470.314 189.153 470.074 189.38C469.834 189.593 469.647 189.86 469.514 190.18H469.474V184.72H467.774ZM480.127 193.84C480.127 193.213 480.207 192.66 480.367 192.18C480.541 191.687 480.774 191.273 481.067 190.94C481.361 190.607 481.701 190.353 482.087 190.18C482.487 190.007 482.907 189.92 483.347 189.92C483.787 189.92 484.201 190.007 484.587 190.18C484.987 190.353 485.334 190.607 485.627 190.94C485.921 191.273 486.147 191.687 486.307 192.18C486.481 192.66 486.567 193.213 486.567 193.84C486.567 194.467 486.481 195.027 486.307 195.52C486.147 196 485.921 196.407 485.627 196.74C485.334 197.06 484.987 197.307 484.587 197.48C484.201 197.653 483.787 197.74 483.347 197.74C482.907 197.74 482.487 197.653 482.087 197.48C481.701 197.307 481.361 197.06 481.067 196.74C480.774 196.407 480.541 196 480.367 195.52C480.207 195.027 480.127 194.467 480.127 193.84ZM478.327 193.84C478.327 194.6 478.434 195.307 478.647 195.96C478.861 196.613 479.181 197.187 479.607 197.68C480.034 198.16 480.561 198.54 481.187 198.82C481.814 199.087 482.534 199.22 483.347 199.22C484.174 199.22 484.894 199.087 485.507 198.82C486.134 198.54 486.661 198.16 487.087 197.68C487.514 197.187 487.834 196.613 488.047 195.96C488.261 195.307 488.367 194.6 488.367 193.84C488.367 193.08 488.261 192.373 488.047 191.72C487.834 191.053 487.514 190.48 487.087 190C486.661 189.507 486.134 189.12 485.507 188.84C484.894 188.56 484.174 188.42 483.347 188.42C482.534 188.42 481.814 188.56 481.187 188.84C480.561 189.12 480.034 189.507 479.607 190C479.181 190.48 478.861 191.053 478.647 191.72C478.434 192.373 478.327 193.08 478.327 193.84ZM490.472 184.72V199H492.172V184.72H490.472ZM496.045 193.92C496.045 193.413 496.099 192.92 496.205 192.44C496.312 191.96 496.485 191.533 496.725 191.16C496.965 190.787 497.285 190.487 497.685 190.26C498.085 190.033 498.572 189.92 499.145 189.92C499.732 189.92 500.232 190.033 500.645 190.26C501.059 190.473 501.392 190.76 501.645 191.12C501.912 191.48 502.105 191.9 502.225 192.38C502.345 192.847 502.405 193.333 502.405 193.84C502.405 194.32 502.345 194.793 502.225 195.26C502.119 195.727 501.939 196.147 501.685 196.52C501.432 196.88 501.105 197.173 500.705 197.4C500.305 197.627 499.819 197.74 499.245 197.74C498.699 197.74 498.219 197.633 497.805 197.42C497.405 197.207 497.072 196.92 496.805 196.56C496.552 196.2 496.359 195.793 496.225 195.34C496.105 194.873 496.045 194.4 496.045 193.92ZM504.045 199V184.72H502.345V190.04H502.305C502.119 189.733 501.885 189.48 501.605 189.28C501.339 189.067 501.052 188.9 500.745 188.78C500.439 188.647 500.132 188.553 499.825 188.5C499.519 188.447 499.232 188.42 498.965 188.42C498.179 188.42 497.485 188.567 496.885 188.86C496.299 189.14 495.805 189.527 495.405 190.02C495.019 190.5 494.725 191.067 494.525 191.72C494.339 192.373 494.245 193.067 494.245 193.8C494.245 194.533 494.345 195.227 494.545 195.88C494.745 196.533 495.039 197.107 495.425 197.6C495.825 198.093 496.319 198.487 496.905 198.78C497.505 199.073 498.205 199.22 499.005 199.22C499.725 199.22 500.385 199.093 500.985 198.84C501.585 198.587 502.025 198.173 502.305 197.6H502.345V199H504.045ZM513.841 192.84H507.901C507.928 192.44 508.014 192.067 508.161 191.72C508.308 191.36 508.508 191.047 508.761 190.78C509.014 190.513 509.314 190.307 509.661 190.16C510.021 190 510.421 189.92 510.861 189.92C511.288 189.92 511.674 190 512.021 190.16C512.381 190.307 512.688 190.513 512.941 190.78C513.208 191.033 513.414 191.34 513.561 191.7C513.721 192.06 513.814 192.44 513.841 192.84ZM515.481 195.72H513.801C513.654 196.4 513.348 196.907 512.881 197.24C512.428 197.573 511.841 197.74 511.121 197.74C510.561 197.74 510.074 197.647 509.661 197.46C509.248 197.273 508.908 197.027 508.641 196.72C508.374 196.4 508.181 196.04 508.061 195.64C507.941 195.227 507.888 194.793 507.901 194.34H515.641C515.668 193.713 515.608 193.053 515.461 192.36C515.328 191.667 515.074 191.027 514.701 190.44C514.341 189.853 513.854 189.373 513.241 189C512.641 188.613 511.881 188.42 510.961 188.42C510.254 188.42 509.601 188.553 509.001 188.82C508.414 189.087 507.901 189.46 507.461 189.94C507.034 190.42 506.701 190.987 506.461 191.64C506.221 192.293 506.101 193.013 506.101 193.8C506.128 194.587 506.241 195.313 506.441 195.98C506.654 196.647 506.968 197.22 507.381 197.7C507.794 198.18 508.301 198.553 508.901 198.82C509.514 199.087 510.234 199.22 511.061 199.22C512.234 199.22 513.208 198.927 513.981 198.34C514.754 197.753 515.254 196.88 515.481 195.72ZM517.343 188.66V199H519.043V194.4C519.043 193.733 519.11 193.147 519.243 192.64C519.376 192.12 519.59 191.68 519.883 191.32C520.176 190.96 520.563 190.687 521.043 190.5C521.523 190.313 522.103 190.22 522.783 190.22V188.42C521.863 188.393 521.103 188.58 520.503 188.98C519.903 189.38 519.396 190 518.983 190.84H518.943V188.66H517.343ZM525.103 195.74H523.403C523.43 196.38 523.563 196.927 523.803 197.38C524.043 197.82 524.363 198.18 524.763 198.46C525.163 198.727 525.623 198.92 526.143 199.04C526.663 199.16 527.21 199.22 527.783 199.22C528.303 199.22 528.823 199.167 529.343 199.06C529.877 198.967 530.35 198.793 530.763 198.54C531.19 198.287 531.53 197.953 531.783 197.54C532.05 197.127 532.183 196.607 532.183 195.98C532.183 195.487 532.083 195.073 531.883 194.74C531.697 194.407 531.443 194.133 531.123 193.92C530.817 193.693 530.457 193.513 530.043 193.38C529.643 193.247 529.23 193.133 528.803 193.04C528.403 192.947 528.003 192.86 527.603 192.78C527.203 192.687 526.843 192.58 526.523 192.46C526.203 192.327 525.937 192.167 525.723 191.98C525.523 191.78 525.423 191.533 525.423 191.24C525.423 190.973 525.49 190.76 525.623 190.6C525.757 190.427 525.93 190.293 526.143 190.2C526.357 190.093 526.59 190.02 526.843 189.98C527.11 189.94 527.37 189.92 527.623 189.92C527.903 189.92 528.177 189.953 528.443 190.02C528.723 190.073 528.977 190.167 529.203 190.3C529.43 190.433 529.617 190.613 529.763 190.84C529.91 191.053 529.997 191.327 530.023 191.66H531.723C531.683 191.033 531.55 190.513 531.323 190.1C531.097 189.673 530.79 189.34 530.403 189.1C530.03 188.847 529.597 188.673 529.103 188.58C528.61 188.473 528.07 188.42 527.483 188.42C527.03 188.42 526.57 188.48 526.103 188.6C525.65 188.707 525.237 188.88 524.863 189.12C524.503 189.347 524.203 189.647 523.963 190.02C523.737 190.393 523.623 190.84 523.623 191.36C523.623 192.027 523.79 192.547 524.123 192.92C524.457 193.293 524.87 193.587 525.363 193.8C525.87 194 526.417 194.16 527.003 194.28C527.59 194.387 528.13 194.513 528.623 194.66C529.13 194.793 529.55 194.973 529.883 195.2C530.217 195.427 530.383 195.76 530.383 196.2C530.383 196.52 530.303 196.787 530.143 197C529.983 197.2 529.777 197.353 529.523 197.46C529.283 197.567 529.017 197.64 528.723 197.68C528.43 197.72 528.15 197.74 527.883 197.74C527.537 197.74 527.197 197.707 526.863 197.64C526.543 197.573 526.25 197.467 525.983 197.32C525.73 197.16 525.523 196.953 525.363 196.7C525.203 196.433 525.117 196.113 525.103 195.74ZM549.87 199L553.17 188.66H551.41L549.09 197.12H549.05L546.89 188.66H545.03L542.95 197.12H542.91L540.57 188.66H538.69L542.01 199H543.85L545.93 190.78H545.97L548.07 199H549.87ZM563.946 198.96C563.653 199.133 563.246 199.22 562.726 199.22C562.286 199.22 561.933 199.1 561.666 198.86C561.413 198.607 561.286 198.2 561.286 197.64C560.819 198.2 560.273 198.607 559.646 198.86C559.033 199.1 558.366 199.22 557.646 199.22C557.179 199.22 556.733 199.167 556.306 199.06C555.893 198.953 555.533 198.787 555.226 198.56C554.919 198.333 554.673 198.04 554.486 197.68C554.313 197.307 554.226 196.86 554.226 196.34C554.226 195.753 554.326 195.273 554.526 194.9C554.726 194.527 554.986 194.227 555.306 194C555.639 193.76 556.013 193.58 556.426 193.46C556.853 193.34 557.286 193.24 557.726 193.16C558.193 193.067 558.633 193 559.046 192.96C559.473 192.907 559.846 192.84 560.166 192.76C560.486 192.667 560.739 192.54 560.926 192.38C561.113 192.207 561.206 191.96 561.206 191.64C561.206 191.267 561.133 190.967 560.986 190.74C560.853 190.513 560.673 190.34 560.446 190.22C560.233 190.1 559.986 190.02 559.706 189.98C559.439 189.94 559.173 189.92 558.906 189.92C558.186 189.92 557.586 190.06 557.106 190.34C556.626 190.607 556.366 191.12 556.326 191.88H554.626C554.653 191.24 554.786 190.7 555.026 190.26C555.266 189.82 555.586 189.467 555.986 189.2C556.386 188.92 556.839 188.72 557.346 188.6C557.866 188.48 558.419 188.42 559.006 188.42C559.473 188.42 559.933 188.453 560.386 188.52C560.853 188.587 561.273 188.727 561.646 188.94C562.019 189.14 562.319 189.427 562.546 189.8C562.773 190.173 562.886 190.66 562.886 191.26V196.58C562.886 196.98 562.906 197.273 562.946 197.46C562.999 197.647 563.159 197.74 563.426 197.74C563.573 197.74 563.746 197.707 563.946 197.64V198.96ZM561.186 193.66C560.973 193.82 560.693 193.94 560.346 194.02C559.999 194.087 559.633 194.147 559.246 194.2C558.873 194.24 558.493 194.293 558.106 194.36C557.719 194.413 557.373 194.507 557.066 194.64C556.759 194.773 556.506 194.967 556.306 195.22C556.119 195.46 556.026 195.793 556.026 196.22C556.026 196.5 556.079 196.74 556.186 196.94C556.306 197.127 556.453 197.28 556.626 197.4C556.813 197.52 557.026 197.607 557.266 197.66C557.506 197.713 557.759 197.74 558.026 197.74C558.586 197.74 559.066 197.667 559.466 197.52C559.866 197.36 560.193 197.167 560.446 196.94C560.699 196.7 560.886 196.447 561.006 196.18C561.126 195.9 561.186 195.64 561.186 195.4V193.66ZM565.528 188.66V199H567.228V193.16C567.228 192.693 567.288 192.267 567.408 191.88C567.541 191.48 567.735 191.133 567.988 190.84C568.241 190.547 568.555 190.32 568.928 190.16C569.315 190 569.768 189.92 570.288 189.92C570.941 189.92 571.455 190.107 571.828 190.48C572.201 190.853 572.388 191.36 572.388 192V199H574.088V192.2C574.088 191.64 574.028 191.133 573.908 190.68C573.801 190.213 573.608 189.813 573.328 189.48C573.048 189.147 572.681 188.887 572.228 188.7C571.775 188.513 571.208 188.42 570.528 188.42C568.995 188.42 567.875 189.047 567.168 190.3H567.128V188.66H565.528ZM579.001 188.66V185.56H577.301V188.66H575.541V190.16H577.301V196.74C577.301 197.22 577.348 197.607 577.441 197.9C577.535 198.193 577.675 198.42 577.861 198.58C578.061 198.74 578.315 198.853 578.621 198.92C578.941 198.973 579.321 199 579.761 199H581.061V197.5H580.281C580.015 197.5 579.795 197.493 579.621 197.48C579.461 197.453 579.335 197.407 579.241 197.34C579.148 197.273 579.081 197.18 579.041 197.06C579.015 196.94 579.001 196.78 579.001 196.58V190.16H581.061V188.66H579.001Z" fill="#16161D"/>
<path d="M86.9561 173L90.7761 158.72H88.8761L85.9761 170.6H85.9361L82.7761 158.72H80.7161L77.5161 170.6H77.4761L74.6761 158.72H72.7361L76.3961 173H78.3761L81.6761 161H81.7161L84.9761 173H86.9561ZM92.2917 158.72V173H93.9917V167.16C93.9917 166.693 94.0517 166.267 94.1717 165.88C94.3051 165.48 94.4984 165.133 94.7517 164.84C95.0051 164.547 95.3184 164.32 95.6917 164.16C96.0784 164 96.5317 163.92 97.0517 163.92C97.7051 163.92 98.2184 164.107 98.5917 164.48C98.9651 164.853 99.1517 165.36 99.1517 166V173H100.852V166.2C100.852 165.64 100.792 165.133 100.672 164.68C100.565 164.213 100.372 163.813 100.092 163.48C99.8117 163.147 99.4451 162.887 98.9917 162.7C98.5384 162.513 97.9717 162.42 97.2917 162.42C96.9851 162.42 96.6651 162.453 96.3317 162.52C96.0117 162.587 95.6984 162.693 95.3917 162.84C95.0984 162.973 94.8317 163.153 94.5917 163.38C94.3517 163.593 94.1651 163.86 94.0317 164.18H93.9917V158.72H92.2917ZM112.565 172.96C112.272 173.133 111.865 173.22 111.345 173.22C110.905 173.22 110.552 173.1 110.285 172.86C110.032 172.607 109.905 172.2 109.905 171.64C109.438 172.2 108.892 172.607 108.265 172.86C107.652 173.1 106.985 173.22 106.265 173.22C105.798 173.22 105.352 173.167 104.925 173.06C104.512 172.953 104.152 172.787 103.845 172.56C103.538 172.333 103.292 172.04 103.105 171.68C102.932 171.307 102.845 170.86 102.845 170.34C102.845 169.753 102.945 169.273 103.145 168.9C103.345 168.527 103.605 168.227 103.925 168C104.258 167.76 104.632 167.58 105.045 167.46C105.472 167.34 105.905 167.24 106.345 167.16C106.812 167.067 107.252 167 107.665 166.96C108.092 166.907 108.465 166.84 108.785 166.76C109.105 166.667 109.358 166.54 109.545 166.38C109.732 166.207 109.825 165.96 109.825 165.64C109.825 165.267 109.752 164.967 109.605 164.74C109.472 164.513 109.292 164.34 109.065 164.22C108.852 164.1 108.605 164.02 108.325 163.98C108.058 163.94 107.792 163.92 107.525 163.92C106.805 163.92 106.205 164.06 105.725 164.34C105.245 164.607 104.985 165.12 104.945 165.88H103.245C103.272 165.24 103.405 164.7 103.645 164.26C103.885 163.82 104.205 163.467 104.605 163.2C105.005 162.92 105.458 162.72 105.965 162.6C106.485 162.48 107.038 162.42 107.625 162.42C108.092 162.42 108.552 162.453 109.005 162.52C109.472 162.587 109.892 162.727 110.265 162.94C110.638 163.14 110.938 163.427 111.165 163.8C111.392 164.173 111.505 164.66 111.505 165.26V170.58C111.505 170.98 111.525 171.273 111.565 171.46C111.618 171.647 111.778 171.74 112.045 171.74C112.192 171.74 112.365 171.707 112.565 171.64V172.96ZM109.805 167.66C109.592 167.82 109.312 167.94 108.965 168.02C108.618 168.087 108.252 168.147 107.865 168.2C107.492 168.24 107.112 168.293 106.725 168.36C106.338 168.413 105.992 168.507 105.685 168.64C105.378 168.773 105.125 168.967 104.925 169.22C104.738 169.46 104.645 169.793 104.645 170.22C104.645 170.5 104.698 170.74 104.805 170.94C104.925 171.127 105.072 171.28 105.245 171.4C105.432 171.52 105.645 171.607 105.885 171.66C106.125 171.713 106.378 171.74 106.645 171.74C107.205 171.74 107.685 171.667 108.085 171.52C108.485 171.36 108.812 171.167 109.065 170.94C109.318 170.7 109.505 170.447 109.625 170.18C109.745 169.9 109.805 169.64 109.805 169.4V167.66ZM116.507 162.66V159.56H114.807V162.66H113.047V164.16H114.807V170.74C114.807 171.22 114.854 171.607 114.947 171.9C115.041 172.193 115.181 172.42 115.367 172.58C115.567 172.74 115.821 172.853 116.127 172.92C116.447 172.973 116.827 173 117.267 173H118.567V171.5H117.787C117.521 171.5 117.301 171.493 117.127 171.48C116.967 171.453 116.841 171.407 116.747 171.34C116.654 171.273 116.587 171.18 116.547 171.06C116.521 170.94 116.507 170.78 116.507 170.58V164.16H118.567V162.66H116.507ZM130.082 174.38C129.882 174.887 129.682 175.313 129.482 175.66C129.296 176.007 129.082 176.287 128.842 176.5C128.616 176.727 128.356 176.887 128.062 176.98C127.782 177.087 127.456 177.14 127.082 177.14C126.882 177.14 126.682 177.127 126.482 177.1C126.282 177.073 126.089 177.027 125.902 176.96V175.4C126.049 175.467 126.216 175.52 126.402 175.56C126.602 175.613 126.769 175.64 126.902 175.64C127.249 175.64 127.536 175.553 127.762 175.38C128.002 175.22 128.182 174.987 128.302 174.68L129.002 172.94L124.902 162.66H126.822L129.842 171.12H129.882L132.782 162.66H134.582L130.082 174.38ZM137.262 167.84C137.262 167.213 137.342 166.66 137.502 166.18C137.676 165.687 137.909 165.273 138.202 164.94C138.496 164.607 138.836 164.353 139.222 164.18C139.622 164.007 140.042 163.92 140.482 163.92C140.922 163.92 141.336 164.007 141.722 164.18C142.122 164.353 142.469 164.607 142.762 164.94C143.056 165.273 143.282 165.687 143.442 166.18C143.616 166.66 143.702 167.213 143.702 167.84C143.702 168.467 143.616 169.027 143.442 169.52C143.282 170 143.056 170.407 142.762 170.74C142.469 171.06 142.122 171.307 141.722 171.48C141.336 171.653 140.922 171.74 140.482 171.74C140.042 171.74 139.622 171.653 139.222 171.48C138.836 171.307 138.496 171.06 138.202 170.74C137.909 170.407 137.676 170 137.502 169.52C137.342 169.027 137.262 168.467 137.262 167.84ZM135.462 167.84C135.462 168.6 135.569 169.307 135.782 169.96C135.996 170.613 136.316 171.187 136.742 171.68C137.169 172.16 137.696 172.54 138.322 172.82C138.949 173.087 139.669 173.22 140.482 173.22C141.309 173.22 142.029 173.087 142.642 172.82C143.269 172.54 143.796 172.16 144.222 171.68C144.649 171.187 144.969 170.613 145.182 169.96C145.396 169.307 145.502 168.6 145.502 167.84C145.502 167.08 145.396 166.373 145.182 165.72C144.969 165.053 144.649 164.48 144.222 164C143.796 163.507 143.269 163.12 142.642 162.84C142.029 162.56 141.309 162.42 140.482 162.42C139.669 162.42 138.949 162.56 138.322 162.84C137.696 163.12 137.169 163.507 136.742 164C136.316 164.48 135.996 165.053 135.782 165.72C135.569 166.373 135.462 167.08 135.462 167.84ZM156.067 173V162.66H154.367V168.5C154.367 168.967 154.3 169.4 154.167 169.8C154.047 170.187 153.86 170.527 153.607 170.82C153.353 171.113 153.033 171.34 152.647 171.5C152.273 171.66 151.827 171.74 151.307 171.74C150.653 171.74 150.14 171.553 149.767 171.18C149.393 170.807 149.207 170.3 149.207 169.66V162.66H147.507V169.46C147.507 170.02 147.56 170.533 147.667 171C147.787 171.453 147.987 171.847 148.267 172.18C148.547 172.513 148.913 172.773 149.367 172.96C149.82 173.133 150.387 173.22 151.067 173.22C151.827 173.22 152.487 173.073 153.047 172.78C153.607 172.473 154.067 172 154.427 171.36H154.467V173H156.067ZM171.206 165.98H172.966C172.9 165.367 172.74 164.84 172.486 164.4C172.233 163.947 171.906 163.573 171.506 163.28C171.12 162.987 170.666 162.773 170.146 162.64C169.64 162.493 169.093 162.42 168.506 162.42C167.693 162.42 166.98 162.567 166.366 162.86C165.753 163.14 165.24 163.533 164.826 164.04C164.426 164.533 164.126 165.12 163.926 165.8C163.726 166.467 163.626 167.187 163.626 167.96C163.626 168.733 163.726 169.447 163.926 170.1C164.14 170.74 164.446 171.293 164.846 171.76C165.26 172.227 165.766 172.587 166.366 172.84C166.98 173.093 167.68 173.22 168.466 173.22C169.786 173.22 170.826 172.873 171.586 172.18C172.36 171.487 172.84 170.5 173.026 169.22H171.286C171.18 170.02 170.886 170.64 170.406 171.08C169.94 171.52 169.286 171.74 168.446 171.74C167.913 171.74 167.453 171.633 167.066 171.42C166.68 171.207 166.366 170.927 166.126 170.58C165.886 170.22 165.706 169.813 165.586 169.36C165.48 168.907 165.426 168.44 165.426 167.96C165.426 167.44 165.48 166.94 165.586 166.46C165.693 165.967 165.866 165.533 166.106 165.16C166.36 164.787 166.693 164.487 167.106 164.26C167.52 164.033 168.033 163.92 168.646 163.92C169.366 163.92 169.94 164.1 170.366 164.46C170.793 164.82 171.073 165.327 171.206 165.98ZM184.088 172.96C183.795 173.133 183.388 173.22 182.868 173.22C182.428 173.22 182.075 173.1 181.808 172.86C181.555 172.607 181.428 172.2 181.428 171.64C180.962 172.2 180.415 172.607 179.788 172.86C179.175 173.1 178.508 173.22 177.788 173.22C177.322 173.22 176.875 173.167 176.448 173.06C176.035 172.953 175.675 172.787 175.368 172.56C175.062 172.333 174.815 172.04 174.628 171.68C174.455 171.307 174.368 170.86 174.368 170.34C174.368 169.753 174.468 169.273 174.668 168.9C174.868 168.527 175.128 168.227 175.448 168C175.782 167.76 176.155 167.58 176.568 167.46C176.995 167.34 177.428 167.24 177.868 167.16C178.335 167.067 178.775 167 179.188 166.96C179.615 166.907 179.988 166.84 180.308 166.76C180.628 166.667 180.882 166.54 181.068 166.38C181.255 166.207 181.348 165.96 181.348 165.64C181.348 165.267 181.275 164.967 181.128 164.74C180.995 164.513 180.815 164.34 180.588 164.22C180.375 164.1 180.128 164.02 179.848 163.98C179.582 163.94 179.315 163.92 179.048 163.92C178.328 163.92 177.728 164.06 177.248 164.34C176.768 164.607 176.508 165.12 176.468 165.88H174.768C174.795 165.24 174.928 164.7 175.168 164.26C175.408 163.82 175.728 163.467 176.128 163.2C176.528 162.92 176.982 162.72 177.488 162.6C178.008 162.48 178.562 162.42 179.148 162.42C179.615 162.42 180.075 162.453 180.528 162.52C180.995 162.587 181.415 162.727 181.788 162.94C182.162 163.14 182.462 163.427 182.688 163.8C182.915 164.173 183.028 164.66 183.028 165.26V170.58C183.028 170.98 183.048 171.273 183.088 171.46C183.142 171.647 183.302 171.74 183.568 171.74C183.715 171.74 183.888 171.707 184.088 171.64V172.96ZM181.328 167.66C181.115 167.82 180.835 167.94 180.488 168.02C180.142 168.087 179.775 168.147 179.388 168.2C179.015 168.24 178.635 168.293 178.248 168.36C177.862 168.413 177.515 168.507 177.208 168.64C176.902 168.773 176.648 168.967 176.448 169.22C176.262 169.46 176.168 169.793 176.168 170.22C176.168 170.5 176.222 170.74 176.328 170.94C176.448 171.127 176.595 171.28 176.768 171.4C176.955 171.52 177.168 171.607 177.408 171.66C177.648 171.713 177.902 171.74 178.168 171.74C178.728 171.74 179.208 171.667 179.608 171.52C180.008 171.36 180.335 171.167 180.588 170.94C180.842 170.7 181.028 170.447 181.148 170.18C181.268 169.9 181.328 169.64 181.328 169.4V167.66ZM185.671 162.66V173H187.371V167.16C187.371 166.693 187.431 166.267 187.551 165.88C187.684 165.48 187.877 165.133 188.131 164.84C188.384 164.547 188.697 164.32 189.071 164.16C189.457 164 189.911 163.92 190.431 163.92C191.084 163.92 191.597 164.107 191.971 164.48C192.344 164.853 192.531 165.36 192.531 166V173H194.231V166.2C194.231 165.64 194.171 165.133 194.051 164.68C193.944 164.213 193.751 163.813 193.471 163.48C193.191 163.147 192.824 162.887 192.371 162.7C191.917 162.513 191.351 162.42 190.671 162.42C189.137 162.42 188.017 163.047 187.311 164.3H187.271V162.66H185.671ZM78.6141 198.12V188.66H77.0141V190.14H76.9941C76.6874 189.567 76.2607 189.14 75.7141 188.86C75.1674 188.567 74.5674 188.42 73.9141 188.42C73.0207 188.42 72.2674 188.593 71.6541 188.94C71.0407 189.273 70.5474 189.707 70.1741 190.24C69.8007 190.76 69.5341 191.347 69.3741 192C69.2141 192.64 69.1341 193.267 69.1341 193.88C69.1341 194.587 69.2274 195.26 69.4141 195.9C69.6141 196.527 69.9074 197.08 70.2941 197.56C70.6807 198.027 71.1607 198.4 71.7341 198.68C72.3074 198.96 72.9807 199.1 73.7541 199.1C74.4207 199.1 75.0474 198.953 75.6341 198.66C76.2341 198.353 76.6807 197.88 76.9741 197.24H77.0141V197.92C77.0141 198.493 76.9541 199.02 76.8341 199.5C76.7274 199.98 76.5474 200.387 76.2941 200.72C76.0407 201.067 75.7207 201.333 75.3341 201.52C74.9474 201.72 74.4741 201.82 73.9141 201.82C73.6341 201.82 73.3407 201.787 73.0341 201.72C72.7274 201.667 72.4407 201.573 72.1741 201.44C71.9207 201.307 71.7007 201.133 71.5141 200.92C71.3407 200.707 71.2474 200.447 71.2341 200.14H69.5341C69.5607 200.7 69.7074 201.173 69.9741 201.56C70.2407 201.947 70.5741 202.26 70.9741 202.5C71.3874 202.74 71.8407 202.913 72.3341 203.02C72.8407 203.127 73.3341 203.18 73.8141 203.18C75.4674 203.18 76.6807 202.76 77.4541 201.92C78.2274 201.08 78.6141 199.813 78.6141 198.12ZM73.8541 197.62C73.2941 197.62 72.8274 197.507 72.4541 197.28C72.0807 197.04 71.7807 196.733 71.5541 196.36C71.3274 195.973 71.1674 195.547 71.0741 195.08C70.9807 194.613 70.9341 194.147 70.9341 193.68C70.9341 193.187 70.9874 192.713 71.0941 192.26C71.2141 191.807 71.3941 191.407 71.6341 191.06C71.8874 190.713 72.2074 190.44 72.5941 190.24C72.9807 190.027 73.4474 189.92 73.9941 189.92C74.5274 189.92 74.9807 190.027 75.3541 190.24C75.7274 190.453 76.0274 190.74 76.2541 191.1C76.4941 191.447 76.6674 191.84 76.7741 192.28C76.8807 192.72 76.9341 193.167 76.9341 193.62C76.9341 194.1 76.8741 194.58 76.7541 195.06C76.6474 195.54 76.4741 195.973 76.2341 196.36C75.9941 196.733 75.6741 197.04 75.2741 197.28C74.8874 197.507 74.4141 197.62 73.8541 197.62ZM88.3584 192.84H82.4184C82.4451 192.44 82.5318 192.067 82.6784 191.72C82.8251 191.36 83.0251 191.047 83.2784 190.78C83.5318 190.513 83.8318 190.307 84.1784 190.16C84.5384 190 84.9384 189.92 85.3784 189.92C85.8051 189.92 86.1918 190 86.5384 190.16C86.8984 190.307 87.2051 190.513 87.4584 190.78C87.7251 191.033 87.9318 191.34 88.0784 191.7C88.2384 192.06 88.3318 192.44 88.3584 192.84ZM89.9984 195.72H88.3184C88.1718 196.4 87.8651 196.907 87.3984 197.24C86.9451 197.573 86.3584 197.74 85.6384 197.74C85.0784 197.74 84.5918 197.647 84.1784 197.46C83.7651 197.273 83.4251 197.027 83.1584 196.72C82.8918 196.4 82.6984 196.04 82.5784 195.64C82.4584 195.227 82.4051 194.793 82.4184 194.34H90.1584C90.1851 193.713 90.1251 193.053 89.9784 192.36C89.8451 191.667 89.5918 191.027 89.2184 190.44C88.8584 189.853 88.3718 189.373 87.7584 189C87.1584 188.613 86.3984 188.42 85.4784 188.42C84.7718 188.42 84.1184 188.553 83.5184 188.82C82.9318 189.087 82.4184 189.46 81.9784 189.94C81.5518 190.42 81.2184 190.987 80.9784 191.64C80.7384 192.293 80.6184 193.013 80.6184 193.8C80.6451 194.587 80.7584 195.313 80.9584 195.98C81.1718 196.647 81.4851 197.22 81.8984 197.7C82.3118 198.18 82.8184 198.553 83.4184 198.82C84.0318 199.087 84.7518 199.22 85.5784 199.22C86.7518 199.22 87.7251 198.927 88.4984 198.34C89.2718 197.753 89.7718 196.88 89.9984 195.72ZM91.9206 188.66V199H93.6206V193.16C93.6206 192.693 93.6806 192.267 93.8006 191.88C93.934 191.48 94.1273 191.133 94.3806 190.84C94.634 190.547 94.9473 190.32 95.3206 190.16C95.7073 190 96.1606 189.92 96.6806 189.92C97.334 189.92 97.8473 190.107 98.2206 190.48C98.594 190.853 98.7806 191.36 98.7806 192V199H100.481V192.2C100.481 191.64 100.421 191.133 100.301 190.68C100.194 190.213 100.001 189.813 99.7206 189.48C99.4406 189.147 99.074 188.887 98.6206 188.7C98.1673 188.513 97.6006 188.42 96.9206 188.42C95.3873 188.42 94.2673 189.047 93.5606 190.3H93.5206V188.66H91.9206ZM111.594 199V188.66H109.894V194.5C109.894 194.967 109.827 195.4 109.694 195.8C109.574 196.187 109.387 196.527 109.134 196.82C108.881 197.113 108.561 197.34 108.174 197.5C107.801 197.66 107.354 197.74 106.834 197.74C106.181 197.74 105.667 197.553 105.294 197.18C104.921 196.807 104.734 196.3 104.734 195.66V188.66H103.034V195.46C103.034 196.02 103.087 196.533 103.194 197C103.314 197.453 103.514 197.847 103.794 198.18C104.074 198.513 104.441 198.773 104.894 198.96C105.347 199.133 105.914 199.22 106.594 199.22C107.354 199.22 108.014 199.073 108.574 198.78C109.134 198.473 109.594 198 109.954 197.36H109.994V199H111.594ZM115.947 186.8V184.72H114.247V186.8H115.947ZM114.247 188.66V199H115.947V188.66H114.247ZM118.581 188.66V199H120.281V193.16C120.281 192.693 120.341 192.267 120.461 191.88C120.594 191.48 120.787 191.133 121.041 190.84C121.294 190.547 121.607 190.32 121.981 190.16C122.367 190 122.821 189.92 123.341 189.92C123.994 189.92 124.507 190.107 124.881 190.48C125.254 190.853 125.441 191.36 125.441 192V199H127.141V192.2C127.141 191.64 127.081 191.133 126.961 190.68C126.854 190.213 126.661 189.813 126.381 189.48C126.101 189.147 125.734 188.887 125.281 188.7C124.827 188.513 124.261 188.42 123.581 188.42C122.047 188.42 120.927 189.047 120.221 190.3H120.181V188.66H118.581ZM136.874 192.84H130.934C130.961 192.44 131.047 192.067 131.194 191.72C131.341 191.36 131.541 191.047 131.794 190.78C132.047 190.513 132.347 190.307 132.694 190.16C133.054 190 133.454 189.92 133.894 189.92C134.321 189.92 134.707 190 135.054 190.16C135.414 190.307 135.721 190.513 135.974 190.78C136.241 191.033 136.447 191.34 136.594 191.7C136.754 192.06 136.847 192.44 136.874 192.84ZM138.514 195.72H136.834C136.687 196.4 136.381 196.907 135.914 197.24C135.461 197.573 134.874 197.74 134.154 197.74C133.594 197.74 133.107 197.647 132.694 197.46C132.281 197.273 131.941 197.027 131.674 196.72C131.407 196.4 131.214 196.04 131.094 195.64C130.974 195.227 130.921 194.793 130.934 194.34H138.674C138.701 193.713 138.641 193.053 138.494 192.36C138.361 191.667 138.107 191.027 137.734 190.44C137.374 189.853 136.887 189.373 136.274 189C135.674 188.613 134.914 188.42 133.994 188.42C133.287 188.42 132.634 188.553 132.034 188.82C131.447 189.087 130.934 189.46 130.494 189.94C130.067 190.42 129.734 190.987 129.494 191.64C129.254 192.293 129.134 193.013 129.134 193.8C129.161 194.587 129.274 195.313 129.474 195.98C129.687 196.647 130.001 197.22 130.414 197.7C130.827 198.18 131.334 198.553 131.934 198.82C132.547 199.087 133.267 199.22 134.094 199.22C135.267 199.22 136.241 198.927 137.014 198.34C137.787 197.753 138.287 196.88 138.514 195.72ZM140.536 184.72V199H142.236V184.72H140.536ZM148.93 200.38C148.73 200.887 148.53 201.313 148.33 201.66C148.143 202.007 147.93 202.287 147.69 202.5C147.463 202.727 147.203 202.887 146.91 202.98C146.63 203.087 146.303 203.14 145.93 203.14C145.73 203.14 145.53 203.127 145.33 203.1C145.13 203.073 144.937 203.027 144.75 202.96V201.4C144.897 201.467 145.063 201.52 145.25 201.56C145.45 201.613 145.617 201.64 145.75 201.64C146.097 201.64 146.383 201.553 146.61 201.38C146.85 201.22 147.03 200.987 147.15 200.68L147.85 198.94L143.75 188.66H145.67L148.69 197.12H148.73L151.63 188.66H153.43L148.93 200.38ZM161.676 193.84C161.676 193.213 161.756 192.66 161.916 192.18C162.09 191.687 162.323 191.273 162.616 190.94C162.91 190.607 163.25 190.353 163.636 190.18C164.036 190.007 164.456 189.92 164.896 189.92C165.336 189.92 165.75 190.007 166.136 190.18C166.536 190.353 166.883 190.607 167.176 190.94C167.47 191.273 167.696 191.687 167.856 192.18C168.03 192.66 168.116 193.213 168.116 193.84C168.116 194.467 168.03 195.027 167.856 195.52C167.696 196 167.47 196.407 167.176 196.74C166.883 197.06 166.536 197.307 166.136 197.48C165.75 197.653 165.336 197.74 164.896 197.74C164.456 197.74 164.036 197.653 163.636 197.48C163.25 197.307 162.91 197.06 162.616 196.74C162.323 196.407 162.09 196 161.916 195.52C161.756 195.027 161.676 194.467 161.676 193.84ZM159.876 193.84C159.876 194.6 159.983 195.307 160.196 195.96C160.41 196.613 160.73 197.187 161.156 197.68C161.583 198.16 162.11 198.54 162.736 198.82C163.363 199.087 164.083 199.22 164.896 199.22C165.723 199.22 166.443 199.087 167.056 198.82C167.683 198.54 168.21 198.16 168.636 197.68C169.063 197.187 169.383 196.613 169.596 195.96C169.81 195.307 169.916 194.6 169.916 193.84C169.916 193.08 169.81 192.373 169.596 191.72C169.383 191.053 169.063 190.48 168.636 190C168.21 189.507 167.683 189.12 167.056 188.84C166.443 188.56 165.723 188.42 164.896 188.42C164.083 188.42 163.363 188.56 162.736 188.84C162.11 189.12 161.583 189.507 161.156 190C160.73 190.48 160.41 191.053 160.196 191.72C159.983 192.373 159.876 193.08 159.876 193.84ZM178.241 190.16H174.321V199H172.621V190.16H170.881V188.66H172.621V187.12C172.621 186.28 172.861 185.647 173.341 185.22C173.834 184.78 174.547 184.56 175.481 184.56C175.641 184.56 175.821 184.573 176.021 184.6C176.234 184.627 176.421 184.667 176.581 184.72V186.2C176.434 186.147 176.274 186.113 176.101 186.1C175.927 186.073 175.767 186.06 175.621 186.06C175.207 186.06 174.887 186.14 174.661 186.3C174.434 186.46 174.321 186.767 174.321 187.22V188.66H178.241V187.12C178.241 186.28 178.481 185.647 178.961 185.22C179.454 184.78 180.167 184.56 181.101 184.56C181.261 184.56 181.441 184.573 181.641 184.6C181.854 184.627 182.041 184.667 182.201 184.72V186.2C182.054 186.147 181.894 186.113 181.721 186.1C181.547 186.073 181.387 186.06 181.241 186.06C180.827 186.06 180.507 186.14 180.281 186.3C180.054 186.46 179.941 186.767 179.941 187.22V188.66H181.941V190.16H179.941V199H178.241V190.16ZM190.644 192.84H184.704C184.73 192.44 184.817 192.067 184.964 191.72C185.11 191.36 185.31 191.047 185.564 190.78C185.817 190.513 186.117 190.307 186.464 190.16C186.824 190 187.224 189.92 187.664 189.92C188.09 189.92 188.477 190 188.824 190.16C189.184 190.307 189.49 190.513 189.744 190.78C190.01 191.033 190.217 191.34 190.364 191.7C190.524 192.06 190.617 192.44 190.644 192.84ZM192.284 195.72H190.604C190.457 196.4 190.15 196.907 189.684 197.24C189.23 197.573 188.644 197.74 187.924 197.74C187.364 197.74 186.877 197.647 186.464 197.46C186.05 197.273 185.71 197.027 185.444 196.72C185.177 196.4 184.984 196.04 184.864 195.64C184.744 195.227 184.69 194.793 184.704 194.34H192.444C192.47 193.713 192.41 193.053 192.264 192.36C192.13 191.667 191.877 191.027 191.504 190.44C191.144 189.853 190.657 189.373 190.044 189C189.444 188.613 188.684 188.42 187.764 188.42C187.057 188.42 186.404 188.553 185.804 188.82C185.217 189.087 184.704 189.46 184.264 189.94C183.837 190.42 183.504 190.987 183.264 191.64C183.024 192.293 182.904 193.013 182.904 193.8C182.93 194.587 183.044 195.313 183.244 195.98C183.457 196.647 183.77 197.22 184.184 197.7C184.597 198.18 185.104 198.553 185.704 198.82C186.317 199.087 187.037 199.22 187.864 199.22C189.037 199.22 190.01 198.927 190.784 198.34C191.557 197.753 192.057 196.88 192.284 195.72ZM194.146 188.66V199H195.846V194.4C195.846 193.733 195.912 193.147 196.046 192.64C196.179 192.12 196.392 191.68 196.686 191.32C196.979 190.96 197.366 190.687 197.846 190.5C198.326 190.313 198.906 190.22 199.586 190.22V188.42C198.666 188.393 197.906 188.58 197.306 188.98C196.706 189.38 196.199 190 195.786 190.84H195.746V188.66H194.146Z" fill="#16161D"/>
<path d="M263.802 469L267.622 454.72H265.722L262.822 466.6H262.782L259.622 454.72H257.562L254.362 466.6H254.322L251.522 454.72H249.582L253.242 469H255.222L258.522 457H258.562L261.822 469H263.802ZM269.137 454.72V469H270.837V463.16C270.837 462.693 270.897 462.267 271.017 461.88C271.151 461.48 271.344 461.133 271.597 460.84C271.851 460.547 272.164 460.32 272.537 460.16C272.924 460 273.377 459.92 273.897 459.92C274.551 459.92 275.064 460.107 275.437 460.48C275.811 460.853 275.997 461.36 275.997 462V469H277.697V462.2C277.697 461.64 277.637 461.133 277.517 460.68C277.411 460.213 277.217 459.813 276.937 459.48C276.657 459.147 276.291 458.887 275.837 458.7C275.384 458.513 274.817 458.42 274.137 458.42C273.831 458.42 273.511 458.453 273.177 458.52C272.857 458.587 272.544 458.693 272.237 458.84C271.944 458.973 271.677 459.153 271.437 459.38C271.197 459.593 271.011 459.86 270.877 460.18H270.837V454.72H269.137ZM289.411 468.96C289.117 469.133 288.711 469.22 288.191 469.22C287.751 469.22 287.397 469.1 287.131 468.86C286.877 468.607 286.751 468.2 286.751 467.64C286.284 468.2 285.737 468.607 285.111 468.86C284.497 469.1 283.831 469.22 283.111 469.22C282.644 469.22 282.197 469.167 281.771 469.06C281.357 468.953 280.997 468.787 280.691 468.56C280.384 468.333 280.137 468.04 279.951 467.68C279.777 467.307 279.691 466.86 279.691 466.34C279.691 465.753 279.791 465.273 279.991 464.9C280.191 464.527 280.451 464.227 280.771 464C281.104 463.76 281.477 463.58 281.891 463.46C282.317 463.34 282.751 463.24 283.191 463.16C283.657 463.067 284.097 463 284.511 462.96C284.937 462.907 285.311 462.84 285.631 462.76C285.951 462.667 286.204 462.54 286.391 462.38C286.577 462.207 286.671 461.96 286.671 461.64C286.671 461.267 286.597 460.967 286.451 460.74C286.317 460.513 286.137 460.34 285.911 460.22C285.697 460.1 285.451 460.02 285.171 459.98C284.904 459.94 284.637 459.92 284.371 459.92C283.651 459.92 283.051 460.06 282.571 460.34C282.091 460.607 281.831 461.12 281.791 461.88H280.091C280.117 461.24 280.251 460.7 280.491 460.26C280.731 459.82 281.051 459.467 281.451 459.2C281.851 458.92 282.304 458.72 282.811 458.6C283.331 458.48 283.884 458.42 284.471 458.42C284.937 458.42 285.397 458.453 285.851 458.52C286.317 458.587 286.737 458.727 287.111 458.94C287.484 459.14 287.784 459.427 288.011 459.8C288.237 460.173 288.351 460.66 288.351 461.26V466.58C288.351 466.98 288.371 467.273 288.411 467.46C288.464 467.647 288.624 467.74 288.891 467.74C289.037 467.74 289.211 467.707 289.411 467.64V468.96ZM286.651 463.66C286.437 463.82 286.157 463.94 285.811 464.02C285.464 464.087 285.097 464.147 284.711 464.2C284.337 464.24 283.957 464.293 283.571 464.36C283.184 464.413 282.837 464.507 282.531 464.64C282.224 464.773 281.971 464.967 281.771 465.22C281.584 465.46 281.491 465.793 281.491 466.22C281.491 466.5 281.544 466.74 281.651 466.94C281.771 467.127 281.917 467.28 282.091 467.4C282.277 467.52 282.491 467.607 282.731 467.66C282.971 467.713 283.224 467.74 283.491 467.74C284.051 467.74 284.531 467.667 284.931 467.52C285.331 467.36 285.657 467.167 285.911 466.94C286.164 466.7 286.351 466.447 286.471 466.18C286.591 465.9 286.651 465.64 286.651 465.4V463.66ZM293.353 458.66V455.56H291.653V458.66H289.893V460.16H291.653V466.74C291.653 467.22 291.7 467.607 291.793 467.9C291.886 468.193 292.026 468.42 292.213 468.58C292.413 468.74 292.666 468.853 292.973 468.92C293.293 468.973 293.673 469 294.113 469H295.413V467.5H294.633C294.366 467.5 294.146 467.493 293.973 467.48C293.813 467.453 293.686 467.407 293.593 467.34C293.5 467.273 293.433 467.18 293.393 467.06C293.366 466.94 293.353 466.78 293.353 466.58V460.16H295.413V458.66H293.353ZM302.868 458.66V469H304.568V462.56C304.568 462.36 304.615 462.113 304.708 461.82C304.815 461.513 304.975 461.22 305.188 460.94C305.415 460.66 305.701 460.42 306.048 460.22C306.408 460.02 306.835 459.92 307.328 459.92C307.715 459.92 308.028 459.98 308.268 460.1C308.521 460.207 308.721 460.367 308.868 460.58C309.015 460.78 309.115 461.02 309.168 461.3C309.235 461.58 309.268 461.887 309.268 462.22V469H310.968V462.56C310.968 461.76 311.208 461.12 311.688 460.64C312.168 460.16 312.828 459.92 313.668 459.92C314.081 459.92 314.415 459.98 314.668 460.1C314.935 460.22 315.141 460.387 315.288 460.6C315.435 460.8 315.535 461.04 315.588 461.32C315.641 461.6 315.668 461.9 315.668 462.22V469H317.368V461.42C317.368 460.887 317.281 460.433 317.108 460.06C316.948 459.673 316.715 459.36 316.408 459.12C316.115 458.88 315.755 458.707 315.328 458.6C314.915 458.48 314.448 458.42 313.928 458.42C313.248 458.42 312.621 458.573 312.048 458.88C311.488 459.187 311.035 459.62 310.688 460.18C310.475 459.54 310.108 459.087 309.588 458.82C309.068 458.553 308.488 458.42 307.848 458.42C306.395 458.42 305.281 459.007 304.508 460.18H304.468V458.66H302.868ZM329.079 468.96C328.785 469.133 328.379 469.22 327.859 469.22C327.419 469.22 327.065 469.1 326.799 468.86C326.545 468.607 326.419 468.2 326.419 467.64C325.952 468.2 325.405 468.607 324.779 468.86C324.165 469.1 323.499 469.22 322.779 469.22C322.312 469.22 321.865 469.167 321.439 469.06C321.025 468.953 320.665 468.787 320.359 468.56C320.052 468.333 319.805 468.04 319.619 467.68C319.445 467.307 319.359 466.86 319.359 466.34C319.359 465.753 319.459 465.273 319.659 464.9C319.859 464.527 320.119 464.227 320.439 464C320.772 463.76 321.145 463.58 321.559 463.46C321.985 463.34 322.419 463.24 322.859 463.16C323.325 463.067 323.765 463 324.179 462.96C324.605 462.907 324.979 462.84 325.299 462.76C325.619 462.667 325.872 462.54 326.059 462.38C326.245 462.207 326.339 461.96 326.339 461.64C326.339 461.267 326.265 460.967 326.119 460.74C325.985 460.513 325.805 460.34 325.579 460.22C325.365 460.1 325.119 460.02 324.839 459.98C324.572 459.94 324.305 459.92 324.039 459.92C323.319 459.92 322.719 460.06 322.239 460.34C321.759 460.607 321.499 461.12 321.459 461.88H319.759C319.785 461.24 319.919 460.7 320.159 460.26C320.399 459.82 320.719 459.467 321.119 459.2C321.519 458.92 321.972 458.72 322.479 458.6C322.999 458.48 323.552 458.42 324.139 458.42C324.605 458.42 325.065 458.453 325.519 458.52C325.985 458.587 326.405 458.727 326.779 458.94C327.152 459.14 327.452 459.427 327.679 459.8C327.905 460.173 328.019 460.66 328.019 461.26V466.58C328.019 466.98 328.039 467.273 328.079 467.46C328.132 467.647 328.292 467.74 328.559 467.74C328.705 467.74 328.879 467.707 329.079 467.64V468.96ZM326.319 463.66C326.105 463.82 325.825 463.94 325.479 464.02C325.132 464.087 324.765 464.147 324.379 464.2C324.005 464.24 323.625 464.293 323.239 464.36C322.852 464.413 322.505 464.507 322.199 464.64C321.892 464.773 321.639 464.967 321.439 465.22C321.252 465.46 321.159 465.793 321.159 466.22C321.159 466.5 321.212 466.74 321.319 466.94C321.439 467.127 321.585 467.28 321.759 467.4C321.945 467.52 322.159 467.607 322.399 467.66C322.639 467.713 322.892 467.74 323.159 467.74C323.719 467.74 324.199 467.667 324.599 467.52C324.999 467.36 325.325 467.167 325.579 466.94C325.832 466.7 326.019 466.447 326.139 466.18C326.259 465.9 326.319 465.64 326.319 465.4V463.66ZM330.761 454.72V469H332.461V465.08L334.061 463.6L337.601 469H339.761L335.361 462.42L339.461 458.66H337.181L332.461 463.18V454.72H330.761ZM348.212 462.84H342.272C342.299 462.44 342.385 462.067 342.532 461.72C342.679 461.36 342.879 461.047 343.132 460.78C343.385 460.513 343.685 460.307 344.032 460.16C344.392 460 344.792 459.92 345.232 459.92C345.659 459.92 346.045 460 346.392 460.16C346.752 460.307 347.059 460.513 347.312 460.78C347.579 461.033 347.785 461.34 347.932 461.7C348.092 462.06 348.185 462.44 348.212 462.84ZM349.852 465.72H348.172C348.025 466.4 347.719 466.907 347.252 467.24C346.799 467.573 346.212 467.74 345.492 467.74C344.932 467.74 344.445 467.647 344.032 467.46C343.619 467.273 343.279 467.027 343.012 466.72C342.745 466.4 342.552 466.04 342.432 465.64C342.312 465.227 342.259 464.793 342.272 464.34H350.012C350.039 463.713 349.979 463.053 349.832 462.36C349.699 461.667 349.445 461.027 349.072 460.44C348.712 459.853 348.225 459.373 347.612 459C347.012 458.613 346.252 458.42 345.332 458.42C344.625 458.42 343.972 458.553 343.372 458.82C342.785 459.087 342.272 459.46 341.832 459.94C341.405 460.42 341.072 460.987 340.832 461.64C340.592 462.293 340.472 463.013 340.472 463.8C340.499 464.587 340.612 465.313 340.812 465.98C341.025 466.647 341.339 467.22 341.752 467.7C342.165 468.18 342.672 468.553 343.272 468.82C343.885 469.087 344.605 469.22 345.432 469.22C346.605 469.22 347.579 468.927 348.352 468.34C349.125 467.753 349.625 466.88 349.852 465.72ZM352.814 465.74H351.114C351.141 466.38 351.274 466.927 351.514 467.38C351.754 467.82 352.074 468.18 352.474 468.46C352.874 468.727 353.334 468.92 353.854 469.04C354.374 469.16 354.921 469.22 355.494 469.22C356.014 469.22 356.534 469.167 357.054 469.06C357.587 468.967 358.061 468.793 358.474 468.54C358.901 468.287 359.241 467.953 359.494 467.54C359.761 467.127 359.894 466.607 359.894 465.98C359.894 465.487 359.794 465.073 359.594 464.74C359.407 464.407 359.154 464.133 358.834 463.92C358.527 463.693 358.167 463.513 357.754 463.38C357.354 463.247 356.941 463.133 356.514 463.04C356.114 462.947 355.714 462.86 355.314 462.78C354.914 462.687 354.554 462.58 354.234 462.46C353.914 462.327 353.647 462.167 353.434 461.98C353.234 461.78 353.134 461.533 353.134 461.24C353.134 460.973 353.201 460.76 353.334 460.6C353.467 460.427 353.641 460.293 353.854 460.2C354.067 460.093 354.301 460.02 354.554 459.98C354.821 459.94 355.081 459.92 355.334 459.92C355.614 459.92 355.887 459.953 356.154 460.02C356.434 460.073 356.687 460.167 356.914 460.3C357.141 460.433 357.327 460.613 357.474 460.84C357.621 461.053 357.707 461.327 357.734 461.66H359.434C359.394 461.033 359.261 460.513 359.034 460.1C358.807 459.673 358.501 459.34 358.114 459.1C357.741 458.847 357.307 458.673 356.814 458.58C356.321 458.473 355.781 458.42 355.194 458.42C354.741 458.42 354.281 458.48 353.814 458.6C353.361 458.707 352.947 458.88 352.574 459.12C352.214 459.347 351.914 459.647 351.674 460.02C351.447 460.393 351.334 460.84 351.334 461.36C351.334 462.027 351.501 462.547 351.834 462.92C352.167 463.293 352.581 463.587 353.074 463.8C353.581 464 354.127 464.16 354.714 464.28C355.301 464.387 355.841 464.513 356.334 464.66C356.841 464.793 357.261 464.973 357.594 465.2C357.927 465.427 358.094 465.76 358.094 466.2C358.094 466.52 358.014 466.787 357.854 467C357.694 467.2 357.487 467.353 357.234 467.46C356.994 467.567 356.727 467.64 356.434 467.68C356.141 467.72 355.861 467.74 355.594 467.74C355.247 467.74 354.907 467.707 354.574 467.64C354.254 467.573 353.961 467.467 353.694 467.32C353.441 467.16 353.234 466.953 353.074 466.7C352.914 466.433 352.827 466.113 352.814 465.74ZM371.401 470.38C371.201 470.887 371.001 471.313 370.801 471.66C370.614 472.007 370.401 472.287 370.161 472.5C369.934 472.727 369.674 472.887 369.381 472.98C369.101 473.087 368.774 473.14 368.401 473.14C368.201 473.14 368.001 473.127 367.801 473.1C367.601 473.073 367.407 473.027 367.221 472.96V471.4C367.367 471.467 367.534 471.52 367.721 471.56C367.921 471.613 368.087 471.64 368.221 471.64C368.567 471.64 368.854 471.553 369.081 471.38C369.321 471.22 369.501 470.987 369.621 470.68L370.321 468.94L366.221 458.66H368.141L371.161 467.12H371.201L374.101 458.66H375.901L371.401 470.38ZM378.581 463.84C378.581 463.213 378.661 462.66 378.821 462.18C378.994 461.687 379.227 461.273 379.521 460.94C379.814 460.607 380.154 460.353 380.541 460.18C380.941 460.007 381.361 459.92 381.801 459.92C382.241 459.92 382.654 460.007 383.041 460.18C383.441 460.353 383.787 460.607 384.081 460.94C384.374 461.273 384.601 461.687 384.761 462.18C384.934 462.66 385.021 463.213 385.021 463.84C385.021 464.467 384.934 465.027 384.761 465.52C384.601 466 384.374 466.407 384.081 466.74C383.787 467.06 383.441 467.307 383.041 467.48C382.654 467.653 382.241 467.74 381.801 467.74C381.361 467.74 380.941 467.653 380.541 467.48C380.154 467.307 379.814 467.06 379.521 466.74C379.227 466.407 378.994 466 378.821 465.52C378.661 465.027 378.581 464.467 378.581 463.84ZM376.781 463.84C376.781 464.6 376.887 465.307 377.101 465.96C377.314 466.613 377.634 467.187 378.061 467.68C378.487 468.16 379.014 468.54 379.641 468.82C380.267 469.087 380.987 469.22 381.801 469.22C382.627 469.22 383.347 469.087 383.961 468.82C384.587 468.54 385.114 468.16 385.541 467.68C385.967 467.187 386.287 466.613 386.501 465.96C386.714 465.307 386.821 464.6 386.821 463.84C386.821 463.08 386.714 462.373 386.501 461.72C386.287 461.053 385.967 460.48 385.541 460C385.114 459.507 384.587 459.12 383.961 458.84C383.347 458.56 382.627 458.42 381.801 458.42C380.987 458.42 380.267 458.56 379.641 458.84C379.014 459.12 378.487 459.507 378.061 460C377.634 460.48 377.314 461.053 377.101 461.72C376.887 462.373 376.781 463.08 376.781 463.84ZM397.385 469V458.66H395.685V464.5C395.685 464.967 395.618 465.4 395.485 465.8C395.365 466.187 395.178 466.527 394.925 466.82C394.672 467.113 394.352 467.34 393.965 467.5C393.592 467.66 393.145 467.74 392.625 467.74C391.972 467.74 391.458 467.553 391.085 467.18C390.712 466.807 390.525 466.3 390.525 465.66V458.66H388.825V465.46C388.825 466.02 388.878 466.533 388.985 467C389.105 467.453 389.305 467.847 389.585 468.18C389.865 468.513 390.232 468.773 390.685 468.96C391.138 469.133 391.705 469.22 392.385 469.22C393.145 469.22 393.805 469.073 394.365 468.78C394.925 468.473 395.385 468 395.745 467.36H395.785V469H397.385ZM293.922 489.92C293.922 489.413 293.976 488.92 294.082 488.44C294.189 487.96 294.362 487.533 294.602 487.16C294.842 486.787 295.162 486.487 295.562 486.26C295.962 486.033 296.449 485.92 297.022 485.92C297.609 485.92 298.109 486.033 298.522 486.26C298.936 486.473 299.269 486.76 299.522 487.12C299.789 487.48 299.982 487.9 300.102 488.38C300.222 488.847 300.282 489.333 300.282 489.84C300.282 490.32 300.222 490.793 300.102 491.26C299.996 491.727 299.816 492.147 299.562 492.52C299.309 492.88 298.982 493.173 298.582 493.4C298.182 493.627 297.696 493.74 297.122 493.74C296.576 493.74 296.096 493.633 295.682 493.42C295.282 493.207 294.949 492.92 294.682 492.56C294.429 492.2 294.236 491.793 294.102 491.34C293.982 490.873 293.922 490.4 293.922 489.92ZM301.922 495V480.72H300.222V486.04H300.182C299.996 485.733 299.762 485.48 299.482 485.28C299.216 485.067 298.929 484.9 298.622 484.78C298.316 484.647 298.009 484.553 297.702 484.5C297.396 484.447 297.109 484.42 296.842 484.42C296.056 484.42 295.362 484.567 294.762 484.86C294.176 485.14 293.682 485.527 293.282 486.02C292.896 486.5 292.602 487.067 292.402 487.72C292.216 488.373 292.122 489.067 292.122 489.8C292.122 490.533 292.222 491.227 292.422 491.88C292.622 492.533 292.916 493.107 293.302 493.6C293.702 494.093 294.196 494.487 294.782 494.78C295.382 495.073 296.082 495.22 296.882 495.22C297.602 495.22 298.262 495.093 298.862 494.84C299.462 494.587 299.902 494.173 300.182 493.6H300.222V495H301.922ZM306.338 482.8V480.72H304.638V482.8H306.338ZM304.638 484.66V495H306.338V484.66H304.638ZM310.011 491.74H308.311C308.338 492.38 308.471 492.927 308.711 493.38C308.951 493.82 309.271 494.18 309.671 494.46C310.071 494.727 310.531 494.92 311.051 495.04C311.571 495.16 312.118 495.22 312.691 495.22C313.211 495.22 313.731 495.167 314.251 495.06C314.785 494.967 315.258 494.793 315.671 494.54C316.098 494.287 316.438 493.953 316.691 493.54C316.958 493.127 317.091 492.607 317.091 491.98C317.091 491.487 316.991 491.073 316.791 490.74C316.605 490.407 316.351 490.133 316.031 489.92C315.725 489.693 315.365 489.513 314.951 489.38C314.551 489.247 314.138 489.133 313.711 489.04C313.311 488.947 312.911 488.86 312.511 488.78C312.111 488.687 311.751 488.58 311.431 488.46C311.111 488.327 310.845 488.167 310.631 487.98C310.431 487.78 310.331 487.533 310.331 487.24C310.331 486.973 310.398 486.76 310.531 486.6C310.665 486.427 310.838 486.293 311.051 486.2C311.265 486.093 311.498 486.02 311.751 485.98C312.018 485.94 312.278 485.92 312.531 485.92C312.811 485.92 313.085 485.953 313.351 486.02C313.631 486.073 313.885 486.167 314.111 486.3C314.338 486.433 314.525 486.613 314.671 486.84C314.818 487.053 314.905 487.327 314.931 487.66H316.631C316.591 487.033 316.458 486.513 316.231 486.1C316.005 485.673 315.698 485.34 315.311 485.1C314.938 484.847 314.505 484.673 314.011 484.58C313.518 484.473 312.978 484.42 312.391 484.42C311.938 484.42 311.478 484.48 311.011 484.6C310.558 484.707 310.145 484.88 309.771 485.12C309.411 485.347 309.111 485.647 308.871 486.02C308.645 486.393 308.531 486.84 308.531 487.36C308.531 488.027 308.698 488.547 309.031 488.92C309.365 489.293 309.778 489.587 310.271 489.8C310.778 490 311.325 490.16 311.911 490.28C312.498 490.387 313.038 490.513 313.531 490.66C314.038 490.793 314.458 490.973 314.791 491.2C315.125 491.427 315.291 491.76 315.291 492.2C315.291 492.52 315.211 492.787 315.051 493C314.891 493.2 314.685 493.353 314.431 493.46C314.191 493.567 313.925 493.64 313.631 493.68C313.338 493.72 313.058 493.74 312.791 493.74C312.445 493.74 312.105 493.707 311.771 493.64C311.451 493.573 311.158 493.467 310.891 493.32C310.638 493.16 310.431 492.953 310.271 492.7C310.111 492.433 310.025 492.113 310.011 491.74ZM321.331 484.66V481.56H319.631V484.66H317.871V486.16H319.631V492.74C319.631 493.22 319.678 493.607 319.771 493.9C319.865 494.193 320.005 494.42 320.191 494.58C320.391 494.74 320.645 494.853 320.951 494.92C321.271 494.973 321.651 495 322.091 495H323.391V493.5H322.611C322.345 493.5 322.125 493.493 321.951 493.48C321.791 493.453 321.665 493.407 321.571 493.34C321.478 493.273 321.411 493.18 321.371 493.06C321.345 492.94 321.331 492.78 321.331 492.58V486.16H323.391V484.66H321.331ZM327.08 482.8V480.72H325.38V482.8H327.08ZM325.38 484.66V495H327.08V484.66H325.38ZM329.714 484.66V495H331.414V489.16C331.414 488.693 331.474 488.267 331.594 487.88C331.727 487.48 331.92 487.133 332.174 486.84C332.427 486.547 332.74 486.32 333.114 486.16C333.5 486 333.954 485.92 334.474 485.92C335.127 485.92 335.64 486.107 336.014 486.48C336.387 486.853 336.574 487.36 336.574 488V495H338.274V488.2C338.274 487.64 338.214 487.133 338.094 486.68C337.987 486.213 337.794 485.813 337.514 485.48C337.234 485.147 336.867 484.887 336.414 484.7C335.96 484.513 335.394 484.42 334.714 484.42C333.18 484.42 332.06 485.047 331.354 486.3H331.314V484.66H329.714ZM347.847 487.98H349.607C349.54 487.367 349.38 486.84 349.127 486.4C348.874 485.947 348.547 485.573 348.147 485.28C347.76 484.987 347.307 484.773 346.787 484.64C346.28 484.493 345.734 484.42 345.147 484.42C344.334 484.42 343.62 484.567 343.007 484.86C342.394 485.14 341.88 485.533 341.467 486.04C341.067 486.533 340.767 487.12 340.567 487.8C340.367 488.467 340.267 489.187 340.267 489.96C340.267 490.733 340.367 491.447 340.567 492.1C340.78 492.74 341.087 493.293 341.487 493.76C341.9 494.227 342.407 494.587 343.007 494.84C343.62 495.093 344.32 495.22 345.107 495.22C346.427 495.22 347.467 494.873 348.227 494.18C349 493.487 349.48 492.5 349.667 491.22H347.927C347.82 492.02 347.527 492.64 347.047 493.08C346.58 493.52 345.927 493.74 345.087 493.74C344.554 493.74 344.094 493.633 343.707 493.42C343.32 493.207 343.007 492.927 342.767 492.58C342.527 492.22 342.347 491.813 342.227 491.36C342.12 490.907 342.067 490.44 342.067 489.96C342.067 489.44 342.12 488.94 342.227 488.46C342.334 487.967 342.507 487.533 342.747 487.16C343 486.787 343.334 486.487 343.747 486.26C344.16 486.033 344.674 485.92 345.287 485.92C346.007 485.92 346.58 486.1 347.007 486.46C347.434 486.82 347.714 487.327 347.847 487.98ZM353.929 484.66V481.56H352.229V484.66H350.469V486.16H352.229V492.74C352.229 493.22 352.276 493.607 352.369 493.9C352.462 494.193 352.602 494.42 352.789 494.58C352.989 494.74 353.242 494.853 353.549 494.92C353.869 494.973 354.249 495 354.689 495H355.989V493.5H355.209C354.942 493.5 354.722 493.493 354.549 493.48C354.389 493.453 354.262 493.407 354.169 493.34C354.076 493.273 354.009 493.18 353.969 493.06C353.942 492.94 353.929 492.78 353.929 492.58V486.16H355.989V484.66H353.929Z" fill="#16161D"/>
<circle cx="446.5" cy="201.5" r="199.5" stroke="#16161D" stroke-width="4"/>
<circle cx="321.5" cy="449.5" r="199.5" stroke="#16161D" stroke-width="4"/>
<circle cx="201.5" cy="201.5" r="199.5" stroke="#16161D" stroke-width="4"/>
<path d="M323.873 274.018C329.543 264.618 340.723 263.358 348.233 266.638C352.525 268.508 356.063 271.768 358.278 275.893C360.492 280.017 361.255 284.767 360.443 289.378C358.563 300.778 351.713 309.148 343.443 316.378C337.963 321.168 331.783 325.158 325.803 329.378C325.316 329.683 324.766 329.874 324.194 329.934C323.622 329.995 323.044 329.924 322.503 329.728C311.163 322.858 300.633 315.018 293.113 303.828C288.423 296.828 285.653 289.248 287.663 280.748C289.613 272.478 294.993 267.258 303.333 265.518C311.673 263.778 318.763 266.378 323.883 274.008" fill="#EB0C38"/>
</svg>
