<svg width="107" height="120" viewBox="0 0 107 120" fill="none" xmlns="http://www.w3.org/2000/svg">
<g clip-path="url(#clip0_832:159)">
<path d="M86.7 68.96H19.75V100.24H86.7V68.96Z" stroke="#16161D" stroke-width="2" stroke-miterlimit="10"/>
<path d="M53.23 9.01997C58.9 -0.38003 70.08 -1.64003 77.59 1.63997C81.8818 3.51038 85.4196 6.77015 87.6343 10.8948C89.849 15.0195 90.6118 19.7692 89.8 24.38C87.92 35.78 81.07 44.15 72.8 51.38C67.32 56.17 61.14 60.16 55.16 64.38C54.6728 64.6855 54.1223 64.8758 53.5505 64.9365C52.9786 64.9971 52.4005 64.9265 51.86 64.73C40.52 57.86 29.99 50.02 22.47 38.83C17.78 31.83 15.01 24.25 17.02 15.75C18.97 7.47997 24.35 2.25997 32.69 0.51997C41.03 -1.22003 48.12 1.37998 53.24 9.00998" fill="#EB0C38"/>
<path d="M105.45 100.24H1V118.16H105.45V100.24Z" stroke="#16161D" stroke-width="2" stroke-miterlimit="10"/>
</g>
<defs>
<clipPath id="clip0_832:159">
<rect width="106.45" height="119.16" fill="white"/>
</clipPath>
</defs>
</svg>
