<svg width="570" height="570" viewBox="0 0 570 570" fill="none" xmlns="http://www.w3.org/2000/svg">
<path d="M308.706 329.16V372H318.126V353.52H335.466V372H344.886V329.16H335.466V345.6H318.126V329.16H308.706ZM381.379 372V340.98H372.859V357.24C372.859 360.4 372.339 362.68 371.299 364.08C370.259 365.44 368.579 366.12 366.259 366.12C364.219 366.12 362.799 365.5 361.999 364.26C361.199 362.98 360.799 361.06 360.799 358.5V340.98H352.279V360.06C352.279 361.98 352.439 363.74 352.759 365.34C353.119 366.9 353.719 368.24 354.559 369.36C355.399 370.44 356.539 371.28 357.979 371.88C359.459 372.48 361.339 372.78 363.619 372.78C365.419 372.78 367.179 372.38 368.899 371.58C370.619 370.78 372.019 369.48 373.099 367.68H373.279V372H381.379ZM388.085 340.98V372H396.605V354C396.605 352.48 396.825 351.26 397.265 350.34C397.705 349.38 398.225 348.66 398.825 348.18C399.465 347.66 400.105 347.32 400.745 347.16C401.425 346.96 401.965 346.86 402.365 346.86C403.725 346.86 404.745 347.1 405.425 347.58C406.145 348.02 406.645 348.62 406.925 349.38C407.245 350.14 407.425 350.98 407.465 351.9C407.505 352.78 407.525 353.68 407.525 354.6V372H416.045V354.72C416.045 353.76 416.105 352.82 416.225 351.9C416.385 350.94 416.665 350.1 417.065 349.38C417.505 348.62 418.085 348.02 418.805 347.58C419.565 347.1 420.545 346.86 421.745 346.86C422.945 346.86 423.885 347.06 424.565 347.46C425.285 347.86 425.825 348.4 426.185 349.08C426.545 349.76 426.765 350.56 426.845 351.48C426.925 352.4 426.965 353.38 426.965 354.42V372H435.485V351.24C435.485 349.24 435.205 347.54 434.645 346.14C434.085 344.7 433.305 343.54 432.305 342.66C431.305 341.78 430.105 341.14 428.705 340.74C427.305 340.34 425.785 340.14 424.145 340.14C421.985 340.14 420.105 340.66 418.505 341.7C416.945 342.74 415.705 343.94 414.785 345.3C413.945 343.38 412.705 342.04 411.065 341.28C409.465 340.52 407.685 340.14 405.725 340.14C403.685 340.14 401.865 340.58 400.265 341.46C398.705 342.34 397.365 343.58 396.245 345.18H396.125V340.98H388.085ZM441.86 350.52C441.98 348.52 442.48 346.86 443.36 345.54C444.24 344.22 445.36 343.16 446.72 342.36C448.08 341.56 449.6 341 451.28 340.68C453 340.32 454.72 340.14 456.44 340.14C458 340.14 459.58 340.26 461.18 340.5C462.78 340.7 464.24 341.12 465.56 341.76C466.88 342.4 467.96 343.3 468.8 344.46C469.64 345.58 470.06 347.08 470.06 348.96V365.1C470.06 366.5 470.14 367.84 470.3 369.12C470.46 370.4 470.74 371.36 471.14 372H462.5C462.34 371.52 462.2 371.04 462.08 370.56C462 370.04 461.94 369.52 461.9 369C460.54 370.4 458.94 371.38 457.1 371.94C455.26 372.5 453.38 372.78 451.46 372.78C449.98 372.78 448.6 372.6 447.32 372.24C446.04 371.88 444.92 371.32 443.96 370.56C443 369.8 442.24 368.84 441.68 367.68C441.16 366.52 440.9 365.14 440.9 363.54C440.9 361.78 441.2 360.34 441.8 359.22C442.44 358.06 443.24 357.14 444.2 356.46C445.2 355.78 446.32 355.28 447.56 354.96C448.84 354.6 450.12 354.32 451.4 354.12C452.68 353.92 453.94 353.76 455.18 353.64C456.42 353.52 457.52 353.34 458.48 353.1C459.44 352.86 460.2 352.52 460.76 352.08C461.32 351.6 461.58 350.92 461.54 350.04C461.54 349.12 461.38 348.4 461.06 347.88C460.78 347.32 460.38 346.9 459.86 346.62C459.38 346.3 458.8 346.1 458.12 346.02C457.48 345.9 456.78 345.84 456.02 345.84C454.34 345.84 453.02 346.2 452.06 346.92C451.1 347.64 450.54 348.84 450.38 350.52H441.86ZM461.54 356.82C461.18 357.14 460.72 357.4 460.16 357.6C459.64 357.76 459.06 357.9 458.42 358.02C457.82 358.14 457.18 358.24 456.5 358.32C455.82 358.4 455.14 358.5 454.46 358.62C453.82 358.74 453.18 358.9 452.54 359.1C451.94 359.3 451.4 359.58 450.92 359.94C450.48 360.26 450.12 360.68 449.84 361.2C449.56 361.72 449.42 362.38 449.42 363.18C449.42 363.94 449.56 364.58 449.84 365.1C450.12 365.62 450.5 366.04 450.98 366.36C451.46 366.64 452.02 366.84 452.66 366.96C453.3 367.08 453.96 367.14 454.64 367.14C456.32 367.14 457.62 366.86 458.54 366.3C459.46 365.74 460.14 365.08 460.58 364.32C461.02 363.52 461.28 362.72 461.36 361.92C461.48 361.12 461.54 360.48 461.54 360V356.82ZM476.674 340.98V372H485.194V355.74C485.194 352.58 485.714 350.32 486.754 348.96C487.794 347.56 489.474 346.86 491.794 346.86C493.834 346.86 495.254 347.5 496.054 348.78C496.854 350.02 497.254 351.92 497.254 354.48V372H505.774V352.92C505.774 351 505.594 349.26 505.234 347.7C504.914 346.1 504.334 344.76 503.494 343.68C502.654 342.56 501.494 341.7 500.014 341.1C498.574 340.46 496.714 340.14 494.434 340.14C492.634 340.14 490.874 340.56 489.154 341.4C487.434 342.2 486.034 343.5 484.954 345.3H484.774V340.98H476.674ZM160.166 430.42C158.806 430.42 157.646 430.14 156.686 429.58C155.726 429.02 154.946 428.3 154.346 427.42C153.786 426.5 153.366 425.44 153.086 424.24C152.846 423.04 152.726 421.82 152.726 420.58C152.726 419.3 152.846 418.06 153.086 416.86C153.326 415.66 153.726 414.6 154.286 413.68C154.886 412.76 155.646 412.02 156.566 411.46C157.526 410.86 158.706 410.56 160.106 410.56C161.466 410.56 162.606 410.86 163.526 411.46C164.486 412.02 165.266 412.78 165.866 413.74C166.466 414.66 166.886 415.72 167.126 416.92C167.406 418.12 167.546 419.34 167.546 420.58C167.546 421.82 167.426 423.04 167.186 424.24C166.946 425.44 166.526 426.5 165.926 427.42C165.366 428.3 164.606 429.02 163.646 429.58C162.726 430.14 161.566 430.42 160.166 430.42ZM144.506 404.98V446.86H153.026V432.16H153.146C154.186 433.68 155.506 434.84 157.106 435.64C158.746 436.4 160.526 436.78 162.446 436.78C164.726 436.78 166.706 436.34 168.386 435.46C170.106 434.58 171.526 433.4 172.646 431.92C173.806 430.44 174.666 428.74 175.226 426.82C175.786 424.9 176.066 422.9 176.066 420.82C176.066 418.62 175.786 416.52 175.226 414.52C174.666 412.48 173.806 410.7 172.646 409.18C171.486 407.66 170.026 406.44 168.266 405.52C166.506 404.6 164.406 404.14 161.966 404.14C160.046 404.14 158.286 404.52 156.686 405.28C155.086 406.04 153.766 407.26 152.726 408.94H152.606V404.98H144.506ZM202.065 417.16H188.205C188.245 416.56 188.365 415.88 188.565 415.12C188.805 414.36 189.185 413.64 189.705 412.96C190.265 412.28 190.985 411.72 191.865 411.28C192.785 410.8 193.925 410.56 195.285 410.56C197.365 410.56 198.905 411.12 199.905 412.24C200.945 413.36 201.665 415 202.065 417.16ZM188.205 422.56H210.585C210.745 420.16 210.545 417.86 209.985 415.66C209.425 413.46 208.505 411.5 207.225 409.78C205.985 408.06 204.385 406.7 202.425 405.7C200.465 404.66 198.165 404.14 195.525 404.14C193.165 404.14 191.005 404.56 189.045 405.4C187.125 406.24 185.465 407.4 184.065 408.88C182.665 410.32 181.585 412.04 180.825 414.04C180.065 416.04 179.685 418.2 179.685 420.52C179.685 422.92 180.045 425.12 180.765 427.12C181.525 429.12 182.585 430.84 183.945 432.28C185.305 433.72 186.965 434.84 188.925 435.64C190.885 436.4 193.085 436.78 195.525 436.78C199.045 436.78 202.045 435.98 204.525 434.38C207.005 432.78 208.845 430.12 210.045 426.4H202.545C202.265 427.36 201.505 428.28 200.265 429.16C199.025 430 197.545 430.42 195.825 430.42C193.425 430.42 191.585 429.8 190.305 428.56C189.025 427.32 188.325 425.32 188.205 422.56ZM215.638 404.98V436H224.158V422.02C224.158 420.62 224.298 419.32 224.578 418.12C224.858 416.92 225.318 415.88 225.958 415C226.638 414.08 227.518 413.36 228.598 412.84C229.678 412.32 230.998 412.06 232.558 412.06C233.078 412.06 233.618 412.1 234.178 412.18C234.738 412.22 235.218 412.28 235.618 412.36V404.44C234.938 404.24 234.318 404.14 233.758 404.14C232.678 404.14 231.638 404.3 230.638 404.62C229.638 404.94 228.698 405.4 227.818 406C226.938 406.56 226.158 407.26 225.478 408.1C224.798 408.9 224.258 409.78 223.858 410.74H223.738V404.98H215.638ZM240.819 410.68V436H249.339V410.68H255.219V404.98H249.339V403.12C249.339 401.84 249.579 400.94 250.059 400.42C250.579 399.86 251.419 399.58 252.579 399.58C253.659 399.58 254.699 399.64 255.699 399.76V393.4C254.979 393.36 254.239 393.32 253.479 393.28C252.719 393.2 251.959 393.16 251.199 393.16C247.719 393.16 245.119 394.04 243.399 395.8C241.679 397.56 240.819 399.82 240.819 402.58V404.98H235.719V410.68H240.819ZM266.499 420.52C266.499 419.28 266.619 418.06 266.859 416.86C267.099 415.66 267.499 414.6 268.059 413.68C268.659 412.76 269.439 412.02 270.399 411.46C271.359 410.86 272.559 410.56 273.999 410.56C275.439 410.56 276.639 410.86 277.599 411.46C278.599 412.02 279.379 412.76 279.939 413.68C280.539 414.6 280.959 415.66 281.199 416.86C281.439 418.06 281.559 419.28 281.559 420.52C281.559 421.76 281.439 422.98 281.199 424.18C280.959 425.34 280.539 426.4 279.939 427.36C279.379 428.28 278.599 429.02 277.599 429.58C276.639 430.14 275.439 430.42 273.999 430.42C272.559 430.42 271.359 430.14 270.399 429.58C269.439 429.02 268.659 428.28 268.059 427.36C267.499 426.4 267.099 425.34 266.859 424.18C266.619 422.98 266.499 421.76 266.499 420.52ZM257.979 420.52C257.979 423 258.359 425.24 259.119 427.24C259.879 429.24 260.959 430.96 262.359 432.4C263.759 433.8 265.439 434.88 267.399 435.64C269.359 436.4 271.559 436.78 273.999 436.78C276.439 436.78 278.639 436.4 280.599 435.64C282.599 434.88 284.299 433.8 285.699 432.4C287.099 430.96 288.179 429.24 288.939 427.24C289.699 425.24 290.079 423 290.079 420.52C290.079 418.04 289.699 415.8 288.939 413.8C288.179 411.76 287.099 410.04 285.699 408.64C284.299 407.2 282.599 406.1 280.599 405.34C278.639 404.54 276.439 404.14 273.999 404.14C271.559 404.14 269.359 404.54 267.399 405.34C265.439 406.1 263.759 407.2 262.359 408.64C260.959 410.04 259.879 411.76 259.119 413.8C258.359 415.8 257.979 418.04 257.979 420.52ZM295.619 404.98V436H304.139V422.02C304.139 420.62 304.279 419.32 304.559 418.12C304.839 416.92 305.299 415.88 305.939 415C306.619 414.08 307.499 413.36 308.579 412.84C309.659 412.32 310.979 412.06 312.539 412.06C313.059 412.06 313.599 412.1 314.159 412.18C314.719 412.22 315.199 412.28 315.599 412.36V404.44C314.919 404.24 314.299 404.14 313.739 404.14C312.659 404.14 311.619 404.3 310.619 404.62C309.619 404.94 308.679 405.4 307.799 406C306.919 406.56 306.139 407.26 305.459 408.1C304.779 408.9 304.239 409.78 303.839 410.74H303.719V404.98H295.619ZM319.179 404.98V436H327.699V418C327.699 416.48 327.919 415.26 328.359 414.34C328.799 413.38 329.319 412.66 329.919 412.18C330.559 411.66 331.199 411.32 331.839 411.16C332.519 410.96 333.059 410.86 333.459 410.86C334.819 410.86 335.839 411.1 336.519 411.58C337.239 412.02 337.739 412.62 338.019 413.38C338.339 414.14 338.519 414.98 338.559 415.9C338.599 416.78 338.619 417.68 338.619 418.6V436H347.139V418.72C347.139 417.76 347.199 416.82 347.319 415.9C347.479 414.94 347.759 414.1 348.159 413.38C348.599 412.62 349.179 412.02 349.899 411.58C350.659 411.1 351.639 410.86 352.839 410.86C354.039 410.86 354.979 411.06 355.659 411.46C356.379 411.86 356.919 412.4 357.279 413.08C357.639 413.76 357.859 414.56 357.939 415.48C358.019 416.4 358.059 417.38 358.059 418.42V436H366.579V415.24C366.579 413.24 366.299 411.54 365.739 410.14C365.179 408.7 364.399 407.54 363.399 406.66C362.399 405.78 361.199 405.14 359.799 404.74C358.399 404.34 356.879 404.14 355.239 404.14C353.079 404.14 351.199 404.66 349.599 405.7C348.039 406.74 346.799 407.94 345.879 409.3C345.039 407.38 343.799 406.04 342.159 405.28C340.559 404.52 338.779 404.14 336.819 404.14C334.779 404.14 332.959 404.58 331.359 405.46C329.799 406.34 328.459 407.58 327.339 409.18H327.219V404.98H319.179ZM372.954 414.52C373.074 412.52 373.574 410.86 374.454 409.54C375.334 408.22 376.454 407.16 377.814 406.36C379.174 405.56 380.694 405 382.374 404.68C384.094 404.32 385.814 404.14 387.534 404.14C389.094 404.14 390.674 404.26 392.274 404.5C393.874 404.7 395.334 405.12 396.654 405.76C397.974 406.4 399.054 407.3 399.894 408.46C400.734 409.58 401.154 411.08 401.154 412.96V429.1C401.154 430.5 401.234 431.84 401.394 433.12C401.554 434.4 401.834 435.36 402.234 436H393.594C393.434 435.52 393.294 435.04 393.174 434.56C393.094 434.04 393.034 433.52 392.994 433C391.634 434.4 390.034 435.38 388.194 435.94C386.354 436.5 384.474 436.78 382.554 436.78C381.074 436.78 379.694 436.6 378.414 436.24C377.134 435.88 376.014 435.32 375.054 434.56C374.094 433.8 373.334 432.84 372.774 431.68C372.254 430.52 371.994 429.14 371.994 427.54C371.994 425.78 372.294 424.34 372.894 423.22C373.534 422.06 374.334 421.14 375.294 420.46C376.294 419.78 377.414 419.28 378.654 418.96C379.934 418.6 381.214 418.32 382.494 418.12C383.774 417.92 385.034 417.76 386.274 417.64C387.514 417.52 388.614 417.34 389.574 417.1C390.534 416.86 391.294 416.52 391.854 416.08C392.414 415.6 392.674 414.92 392.634 414.04C392.634 413.12 392.474 412.4 392.154 411.88C391.874 411.32 391.474 410.9 390.954 410.62C390.474 410.3 389.894 410.1 389.214 410.02C388.574 409.9 387.874 409.84 387.114 409.84C385.434 409.84 384.114 410.2 383.154 410.92C382.194 411.64 381.634 412.84 381.474 414.52H372.954ZM392.634 420.82C392.274 421.14 391.814 421.4 391.254 421.6C390.734 421.76 390.154 421.9 389.514 422.02C388.914 422.14 388.274 422.24 387.594 422.32C386.914 422.4 386.234 422.5 385.554 422.62C384.914 422.74 384.274 422.9 383.634 423.1C383.034 423.3 382.494 423.58 382.014 423.94C381.574 424.26 381.214 424.68 380.934 425.2C380.654 425.72 380.514 426.38 380.514 427.18C380.514 427.94 380.654 428.58 380.934 429.1C381.214 429.62 381.594 430.04 382.074 430.36C382.554 430.64 383.114 430.84 383.754 430.96C384.394 431.08 385.054 431.14 385.734 431.14C387.414 431.14 388.714 430.86 389.634 430.3C390.554 429.74 391.234 429.08 391.674 428.32C392.114 427.52 392.374 426.72 392.454 425.92C392.574 425.12 392.634 424.48 392.634 424V420.82ZM407.767 404.98V436H416.287V419.74C416.287 416.58 416.807 414.32 417.847 412.96C418.887 411.56 420.567 410.86 422.887 410.86C424.927 410.86 426.347 411.5 427.147 412.78C427.947 414.02 428.347 415.92 428.347 418.48V436H436.867V416.92C436.867 415 436.687 413.26 436.327 411.7C436.007 410.1 435.427 408.76 434.587 407.68C433.747 406.56 432.587 405.7 431.107 405.1C429.667 404.46 427.807 404.14 425.527 404.14C423.727 404.14 421.967 404.56 420.247 405.4C418.527 406.2 417.127 407.5 416.047 409.3H415.867V404.98H407.767ZM464.454 415.9H472.794C472.674 413.9 472.194 412.18 471.354 410.74C470.514 409.26 469.414 408.04 468.054 407.08C466.734 406.08 465.214 405.34 463.494 404.86C461.814 404.38 460.054 404.14 458.214 404.14C455.694 404.14 453.454 404.56 451.494 405.4C449.534 406.24 447.874 407.42 446.514 408.94C445.154 410.42 444.114 412.2 443.394 414.28C442.714 416.32 442.374 418.54 442.374 420.94C442.374 423.26 442.754 425.4 443.514 427.36C444.274 429.28 445.334 430.94 446.694 432.34C448.054 433.74 449.694 434.84 451.614 435.64C453.574 436.4 455.714 436.78 458.034 436.78C462.154 436.78 465.534 435.7 468.174 433.54C470.814 431.38 472.414 428.24 472.974 424.12H464.754C464.474 426.04 463.774 427.58 462.654 428.74C461.574 429.86 460.014 430.42 457.974 430.42C456.654 430.42 455.534 430.12 454.614 429.52C453.694 428.92 452.954 428.16 452.394 427.24C451.874 426.28 451.494 425.22 451.254 424.06C451.014 422.9 450.894 421.76 450.894 420.64C450.894 419.48 451.014 418.32 451.254 417.16C451.494 415.96 451.894 414.88 452.454 413.92C453.054 412.92 453.814 412.12 454.734 411.52C455.654 410.88 456.794 410.56 458.154 410.56C461.794 410.56 463.894 412.34 464.454 415.9ZM498.667 417.16H484.807C484.847 416.56 484.967 415.88 485.167 415.12C485.407 414.36 485.787 413.64 486.307 412.96C486.867 412.28 487.587 411.72 488.467 411.28C489.387 410.8 490.527 410.56 491.887 410.56C493.967 410.56 495.507 411.12 496.507 412.24C497.547 413.36 498.267 415 498.667 417.16ZM484.807 422.56H507.187C507.347 420.16 507.147 417.86 506.587 415.66C506.027 413.46 505.107 411.5 503.827 409.78C502.587 408.06 500.987 406.7 499.027 405.7C497.067 404.66 494.767 404.14 492.127 404.14C489.767 404.14 487.607 404.56 485.647 405.4C483.727 406.24 482.067 407.4 480.667 408.88C479.267 410.32 478.187 412.04 477.427 414.04C476.667 416.04 476.287 418.2 476.287 420.52C476.287 422.92 476.647 425.12 477.367 427.12C478.127 429.12 479.187 430.84 480.547 432.28C481.907 433.72 483.567 434.84 485.527 435.64C487.487 436.4 489.687 436.78 492.127 436.78C495.647 436.78 498.647 435.98 501.127 434.38C503.607 432.78 505.447 430.12 506.647 426.4H499.147C498.867 427.36 498.107 428.28 496.867 429.16C495.627 430 494.147 430.42 492.427 430.42C490.027 430.42 488.187 429.8 486.907 428.56C485.627 427.32 484.927 425.32 484.807 422.56ZM167.28 483.44L172.86 467.72H172.98L178.38 483.44H167.28ZM168.18 457.16L151.98 500H161.46L164.82 490.46H180.84L184.08 500H193.86L177.84 457.16H168.18ZM197.554 457.16V500H206.974V457.16H197.554ZM251.929 481.16H238.069C238.109 480.56 238.229 479.88 238.429 479.12C238.669 478.36 239.049 477.64 239.569 476.96C240.129 476.28 240.849 475.72 241.729 475.28C242.649 474.8 243.789 474.56 245.149 474.56C247.229 474.56 248.769 475.12 249.769 476.24C250.809 477.36 251.529 479 251.929 481.16ZM238.069 486.56H260.449C260.609 484.16 260.409 481.86 259.849 479.66C259.289 477.46 258.369 475.5 257.089 473.78C255.849 472.06 254.249 470.7 252.289 469.7C250.329 468.66 248.029 468.14 245.389 468.14C243.029 468.14 240.869 468.56 238.909 469.4C236.989 470.24 235.329 471.4 233.929 472.88C232.529 474.32 231.449 476.04 230.689 478.04C229.929 480.04 229.549 482.2 229.549 484.52C229.549 486.92 229.909 489.12 230.629 491.12C231.389 493.12 232.449 494.84 233.809 496.28C235.169 497.72 236.829 498.84 238.789 499.64C240.749 500.4 242.949 500.78 245.389 500.78C248.909 500.78 251.909 499.98 254.389 498.38C256.869 496.78 258.709 494.12 259.909 490.4H252.409C252.129 491.36 251.369 492.28 250.129 493.16C248.889 494 247.409 494.42 245.689 494.42C243.289 494.42 241.449 493.8 240.169 492.56C238.889 491.32 238.189 489.32 238.069 486.56ZM265.502 468.98V500H274.022V483.74C274.022 480.58 274.542 478.32 275.582 476.96C276.622 475.56 278.302 474.86 280.622 474.86C282.662 474.86 284.082 475.5 284.882 476.78C285.682 478.02 286.082 479.92 286.082 482.48V500H294.602V480.92C294.602 479 294.422 477.26 294.062 475.7C293.742 474.1 293.162 472.76 292.322 471.68C291.482 470.56 290.322 469.7 288.842 469.1C287.402 468.46 285.542 468.14 283.262 468.14C281.462 468.14 279.702 468.56 277.982 469.4C276.262 470.2 274.862 471.5 273.782 473.3H273.602V468.98H265.502ZM301.068 457.16V500H309.588V483.74C309.588 480.58 310.108 478.32 311.148 476.96C312.188 475.56 313.868 474.86 316.188 474.86C318.228 474.86 319.648 475.5 320.448 476.78C321.248 478.02 321.648 479.92 321.648 482.48V500H330.168V480.92C330.168 479 329.988 477.26 329.628 475.7C329.308 474.1 328.728 472.76 327.888 471.68C327.048 470.56 325.888 469.7 324.408 469.1C322.968 468.46 321.108 468.14 318.828 468.14C317.228 468.14 315.588 468.56 313.908 469.4C312.228 470.2 310.848 471.5 309.768 473.3H309.588V457.16H301.068ZM336.275 478.52C336.395 476.52 336.895 474.86 337.775 473.54C338.655 472.22 339.775 471.16 341.135 470.36C342.495 469.56 344.015 469 345.695 468.68C347.415 468.32 349.135 468.14 350.855 468.14C352.415 468.14 353.995 468.26 355.595 468.5C357.195 468.7 358.655 469.12 359.975 469.76C361.295 470.4 362.375 471.3 363.215 472.46C364.055 473.58 364.475 475.08 364.475 476.96V493.1C364.475 494.5 364.555 495.84 364.715 497.12C364.875 498.4 365.155 499.36 365.555 500H356.915C356.755 499.52 356.615 499.04 356.495 498.56C356.415 498.04 356.355 497.52 356.315 497C354.955 498.4 353.355 499.38 351.515 499.94C349.675 500.5 347.795 500.78 345.875 500.78C344.395 500.78 343.015 500.6 341.735 500.24C340.455 499.88 339.335 499.32 338.375 498.56C337.415 497.8 336.655 496.84 336.095 495.68C335.575 494.52 335.315 493.14 335.315 491.54C335.315 489.78 335.615 488.34 336.215 487.22C336.855 486.06 337.655 485.14 338.615 484.46C339.615 483.78 340.735 483.28 341.975 482.96C343.255 482.6 344.535 482.32 345.815 482.12C347.095 481.92 348.355 481.76 349.595 481.64C350.835 481.52 351.935 481.34 352.895 481.1C353.855 480.86 354.615 480.52 355.175 480.08C355.735 479.6 355.995 478.92 355.955 478.04C355.955 477.12 355.795 476.4 355.475 475.88C355.195 475.32 354.795 474.9 354.275 474.62C353.795 474.3 353.215 474.1 352.535 474.02C351.895 473.9 351.195 473.84 350.435 473.84C348.755 473.84 347.435 474.2 346.475 474.92C345.515 475.64 344.955 476.84 344.795 478.52H336.275ZM355.955 484.82C355.595 485.14 355.135 485.4 354.575 485.6C354.055 485.76 353.475 485.9 352.835 486.02C352.235 486.14 351.595 486.24 350.915 486.32C350.235 486.4 349.555 486.5 348.875 486.62C348.235 486.74 347.595 486.9 346.955 487.1C346.355 487.3 345.815 487.58 345.335 487.94C344.895 488.26 344.535 488.68 344.255 489.2C343.975 489.72 343.835 490.38 343.835 491.18C343.835 491.94 343.975 492.58 344.255 493.1C344.535 493.62 344.915 494.04 345.395 494.36C345.875 494.64 346.435 494.84 347.075 494.96C347.715 495.08 348.375 495.14 349.055 495.14C350.735 495.14 352.035 494.86 352.955 494.3C353.875 493.74 354.555 493.08 354.995 492.32C355.435 491.52 355.695 490.72 355.775 489.92C355.895 489.12 355.955 488.48 355.955 488V484.82ZM371.088 468.98V500H379.608V483.74C379.608 480.58 380.128 478.32 381.168 476.96C382.208 475.56 383.888 474.86 386.208 474.86C388.248 474.86 389.668 475.5 390.468 476.78C391.268 478.02 391.668 479.92 391.668 482.48V500H400.188V480.92C400.188 479 400.008 477.26 399.648 475.7C399.328 474.1 398.748 472.76 397.908 471.68C397.068 470.56 395.908 469.7 394.428 469.1C392.988 468.46 391.128 468.14 388.848 468.14C387.048 468.14 385.288 468.56 383.568 469.4C381.848 470.2 380.448 471.5 379.368 473.3H379.188V468.98H371.088ZM427.774 479.9H436.114C435.994 477.9 435.514 476.18 434.674 474.74C433.834 473.26 432.734 472.04 431.374 471.08C430.054 470.08 428.534 469.34 426.814 468.86C425.134 468.38 423.374 468.14 421.534 468.14C419.014 468.14 416.774 468.56 414.814 469.4C412.854 470.24 411.194 471.42 409.834 472.94C408.474 474.42 407.434 476.2 406.714 478.28C406.034 480.32 405.694 482.54 405.694 484.94C405.694 487.26 406.074 489.4 406.834 491.36C407.594 493.28 408.654 494.94 410.014 496.34C411.374 497.74 413.014 498.84 414.934 499.64C416.894 500.4 419.034 500.78 421.354 500.78C425.474 500.78 428.854 499.7 431.494 497.54C434.134 495.38 435.734 492.24 436.294 488.12H428.074C427.794 490.04 427.094 491.58 425.974 492.74C424.894 493.86 423.334 494.42 421.294 494.42C419.974 494.42 418.854 494.12 417.934 493.52C417.014 492.92 416.274 492.16 415.714 491.24C415.194 490.28 414.814 489.22 414.574 488.06C414.334 486.9 414.214 485.76 414.214 484.64C414.214 483.48 414.334 482.32 414.574 481.16C414.814 479.96 415.214 478.88 415.774 477.92C416.374 476.92 417.134 476.12 418.054 475.52C418.974 474.88 420.114 474.56 421.474 474.56C425.114 474.56 427.214 476.34 427.774 479.9ZM461.987 481.16H448.127C448.167 480.56 448.287 479.88 448.487 479.12C448.727 478.36 449.107 477.64 449.627 476.96C450.187 476.28 450.907 475.72 451.787 475.28C452.707 474.8 453.847 474.56 455.207 474.56C457.287 474.56 458.827 475.12 459.827 476.24C460.867 477.36 461.587 479 461.987 481.16ZM448.127 486.56H470.507C470.667 484.16 470.467 481.86 469.907 479.66C469.347 477.46 468.427 475.5 467.147 473.78C465.907 472.06 464.307 470.7 462.347 469.7C460.387 468.66 458.087 468.14 455.447 468.14C453.087 468.14 450.927 468.56 448.967 469.4C447.047 470.24 445.387 471.4 443.987 472.88C442.587 474.32 441.507 476.04 440.747 478.04C439.987 480.04 439.607 482.2 439.607 484.52C439.607 486.92 439.967 489.12 440.687 491.12C441.447 493.12 442.507 494.84 443.867 496.28C445.227 497.72 446.887 498.84 448.847 499.64C450.807 500.4 453.007 500.78 455.447 500.78C458.967 500.78 461.967 499.98 464.447 498.38C466.927 496.78 468.767 494.12 469.967 490.4H462.467C462.187 491.36 461.427 492.28 460.187 493.16C458.947 494 457.467 494.42 455.747 494.42C453.347 494.42 451.507 493.8 450.227 492.56C448.947 491.32 448.247 489.32 448.127 486.56ZM497.58 484.4C497.58 485.68 497.46 486.92 497.22 488.12C496.98 489.32 496.58 490.4 496.02 491.36C495.46 492.28 494.7 493.02 493.74 493.58C492.82 494.14 491.66 494.42 490.26 494.42C488.94 494.42 487.8 494.14 486.84 493.58C485.92 492.98 485.14 492.22 484.5 491.3C483.9 490.34 483.46 489.26 483.18 488.06C482.9 486.86 482.76 485.66 482.76 484.46C482.76 483.18 482.88 481.96 483.12 480.8C483.4 479.6 483.82 478.54 484.38 477.62C484.98 476.7 485.76 475.96 486.72 475.4C487.68 474.84 488.86 474.56 490.26 474.56C491.66 474.56 492.82 474.84 493.74 475.4C494.66 475.96 495.4 476.7 495.96 477.62C496.56 478.5 496.98 479.54 497.22 480.74C497.46 481.9 497.58 483.12 497.58 484.4ZM497.7 496.04V500H505.8V457.16H497.28V472.76H497.16C496.2 471.24 494.88 470.1 493.2 469.34C491.56 468.54 489.82 468.14 487.98 468.14C485.7 468.14 483.7 468.6 481.98 469.52C480.26 470.4 478.82 471.58 477.66 473.06C476.54 474.54 475.68 476.26 475.08 478.22C474.52 480.14 474.24 482.14 474.24 484.22C474.24 486.38 474.52 488.46 475.08 490.46C475.68 492.46 476.54 494.24 477.66 495.8C478.82 497.32 480.28 498.54 482.04 499.46C483.8 500.34 485.84 500.78 488.16 500.78C490.2 500.78 492.02 500.42 493.62 499.7C495.26 498.94 496.58 497.72 497.58 496.04H497.7Z" fill="#38E0D7"/>
<rect x="10" y="10" width="550" height="550" stroke="#38E0D7" stroke-width="20"/>
</svg>
